{
    "hashes": {
        "COPYING": "6e90d46be391aa645bcf4dfaa67f452cb15a73749f1895633789c7763b43cc0b65d391e5e95652c9a9a2063c956e0e8099a4e1ce4b70b0636629f9eac39c1080",
        "appinfo\/certificate.crt": "072e1fce24b755b2c1e1c4f3011ec99bc0827ea55a070deb5dbafa51ffe91ad8bad2421aac8018f3880b5c38fa142b39795f1697d55d02489536d1c5c4f8dfae",
        "appinfo\/info.xml": "ffe5392f981ae38df14a60e9866f295246361f725e7f072a33e6e3122f901dbc776c2458f9502743cf578966a95a3153624c2a86aeeca531ee69f5bc19182afa",
        "composer.json": "8f582771a06a5e037746631408374090f2e975d8a5304839042616a229f0dc6d18b746ad10209a41853b3cbd5d920fb61b3e3a5f5f4c7829ed72f2c2cf8f6b25",
        "composer.lock": "823fe689adfd2342a5d2d35831546b4c6d50662cae05697ce8b68a44f1acef4de6b44cec3a7f121f4d8752bb4dbeec977ebec784d9f673da06dbbc82e7040cc6",
        "img\/app-dark.svg": "87f89c27ffbb61b9fc37167eb7872b22f6982704d3f97b425f3009ca585ee96ec27a8601f538507410a1c1f0be1294eb7c0921938235df2ae2bbd819590540da",
        "img\/app.svg": "ce8134f262c102b08229ecc353667e02b193006553a7a02328c42c032b97a2972eae5e705e5ba62d021e08d8a7c87e4808cc20e5bc9647d442ff3c073f38de11",
        "js\/admin.js": "ed6ee61eea45b65fa9abb2aa1dadd4d7c771bf7ff5677cb944b451eed5de707b12b68af3c0eaae3d753e693c957bc87be9b28bdc4de3ab566c0f30d7c02117c4",
        "l10n\/af.js": "0b557dfceeb1cb5abb7e766b380f084cf867e5a649bcfe5ffa82981bacbc66cb311c07eae62a602cb9fd5be5eb7d6299c7568a02386870a73e00ff2b665d7804",
        "l10n\/af.json": "172faf6d0046ee0e7bf9b5e23ce3d9ec72093b56d7aec3cd8812fc4b3a03ed41e083a67f28eede305e0ea6eead0afea0336a9e7975902d65a308ea41ce86c4c7",
        "l10n\/ar.js": "8a043e5f9394d9044c42d182b5795c7241f452c0a6404f7e033216c50ed28de71d0818141b0dc0eec111f73bcb1293df0efd15e3382b6ab54b18dda396c291d8",
        "l10n\/ar.json": "a8f5f99cb17605933140313fb6fe9414cef30de6136ce8fd6cb1dd7a234b04916e1a30fa9e21229cb5554510b14114a70c20808e9bf595b344d6922366b94bcc",
        "l10n\/ast.js": "d9dce53513443a81cfa575d9badac99bf1582d324e54eb4cca4a00c4eb88e6bd91ba6c30300574b444317ffa393f25c558d07d2c5b8f1c5daec9f444523d8891",
        "l10n\/ast.json": "425d294e80704b9e946a170d02eb54371845175e344d94357de2e69e582e289e1f4f8ab2b6f3ddf259abad47aa6b337dad6850b482218f9c4e9cc74080dbb5e6",
        "l10n\/bg.js": "cc5256ed614c5cee648f73aeb7365be2a7c4d2c9c4075aeb593cbea710e1761db65b4c59dedb100c2bdd6f50a58c23a2a4485ee289c5d9843a0ab4cf591ec22a",
        "l10n\/bg.json": "121e591093fadea696d8012255cbc5f5614eb47dc9463318e59bd8abcdde74576a78abb7c6ddea8a13e9fff996405e6f672480197040e117427fab371870982e",
        "l10n\/br.js": "374b510f3b70f2f87df11a4448155eb07275894dbee5bce6418400ebbef45c08d65ac2318111b5fec6d58bafeda1a189cef5dbdcfc190047261173923bbf4f2f",
        "l10n\/br.json": "16c4943a5adf0301cbf58187e4f7ec22b5450139acb2e73fe697684c7f19f27773080a149587b811ec7500c8ddf04c9c4bc142578901365b0f22fc5bfd6eb914",
        "l10n\/ca.js": "185865f8a1d546568cab4fb3985bf686933b7e56357e89f784753e1dcd9ab7c315a50d4b30f62217ea65c9b0644acf6e520a8603233616a07336fe1e32b19f9c",
        "l10n\/ca.json": "3d3227e54b4643b0dad23fb77eaed2711818c03f9530faf53eab53525548f40f4f1bfa80d203cbe7679b5ba130496047c38478cffc9995772faf99bb333d94f9",
        "l10n\/cs.js": "b8133657106142213e87f5ae10c4485b68000d1c2643fb86b2516573826b2b1274a6a0bb8ef39eb4b41517dd168f3412659e729dfb2d85921dbaf16b89b65f66",
        "l10n\/cs.json": "0cddea4bfbbfb590820122df92e2054e79b59ff98e080c664811ac9f025d1c737ec108fdee087ffb06db385810c33ce7f428cde0c2887237baa6b722b3e0ce48",
        "l10n\/da.js": "2450883421aef7aba2a4d83aae278760471d5f423d20f34061bfd906fde4b9589d9863149243fc19bececce625b069fc60a5ada7a4601a1f05087fde52a59182",
        "l10n\/da.json": "8cb430ab499e0f633d7fc68c4515855896f0706347d4eaaf6dc53b46a929984a6892469bc5eb0f36d977eab751d3e21001e0e0b1847700f0e00920f6ecd1b347",
        "l10n\/de.js": "3dd421871fa0bc76154d1f9f97952cf3e0a5088eda5e155c5bf5cd75fa9a3da30efdf4fddda835bde0b2c56944dec94f994c8687e7b06c04dc7ba593ec762ac6",
        "l10n\/de.json": "f7b864097632891e71524c92c6ec091af1a630b54eb945267f68b1d2a6bee8f2d5e1b35606f519d6e27b402e62d056cb05e847721c621f1542b6333d9cebbcc8",
        "l10n\/de_DE.js": "e58c7be109cfee81393d687a7990e8586bc8d5ee3043dae58ef99f90ff1f5572b9ea11fb7c763d044a1b6949176f750941a489a063e47e699e8f41a73f0ffb07",
        "l10n\/de_DE.json": "097d49889a0e908211691b145ee1e40887a3536c55c8bdbcace8e4a4ba006cb78b9ddc128d74c044f51a917943a4eb980ca8e0a1259b55ac1098f8206a8dee83",
        "l10n\/el.js": "31c7c04af8a5bdbb1cd981539672a097518a1d1d264496f24e68da48f34487ff5525680139e59c5c07276d44948b7c8da2d298da4b340178d4f38655586c2582",
        "l10n\/el.json": "3c687fa344dc21a8aecb72ca283d0039546ff73e51b083d9fc6973471994e7e8feecdc9c4451518313ed9e0141d694cdaaece05f814a12d0f3e6e26fd8dbc2ce",
        "l10n\/en_GB.js": "11d3e709859053b86266fc4f0d0b845597214260e88a5e59383ea0d4d078d2de060bfcd84be6498f0483c2ef723c4826eb74d504863d6decd9689bd9b3865794",
        "l10n\/en_GB.json": "078ccdc1a98e0396d18dff322889014eaacead74a24de515da8455d545a2fa0bc38d99e4412fac7588e99d1bf6751d48a45e6d866d58158d65c6f0d7861625b9",
        "l10n\/eo.js": "2cbd3bafed57ddd652a5292cf9218fe53f074e53a7075b749682df76c88a85906082dd05d7a4a3f7ff8f83c2a304366841e8150cea48614e8963ef08e49b7d83",
        "l10n\/eo.json": "61168ce59c3779704c045be24b1c6ab1dcfdb5f89885f21d522aa238c21e28a857f6163aecb5885e22efa18210d35107366ebefe75460e24526c4ef74991bb66",
        "l10n\/es.js": "5ed55f3ce5d360471e3901df183c2f173094626203193cfdcb8f93a32f2cdac343999270aa0abb00d1a0fce47b483950faaff8353023e48dd3666a06ec1898ce",
        "l10n\/es.json": "834b656b1e9a34caf6bdac5f99b314e67f96413273de81c8cd1d2ef1bcf843d8c03ead475ce63b9f9e261ede95c591dcb43a792ff30ede3f6069b10eb4d92d3a",
        "l10n\/es_419.js": "5c4d6a0720c18127cddef240be1eafc77b69d6f43ae3e57b1571426d19524812d2a5a1c4232a429b16f62dc8814da1ab103866def48d21de86b34b512e335465",
        "l10n\/es_419.json": "88b186c334769aaf40ed77fc57417b30ae7f2eaf7bb87be4be34364c4192688bb07dc644cb42c0ed7b7798f01b79047c6dbe7e0dc9dd41007da71549c16e72c1",
        "l10n\/es_AR.js": "56915406f77ba686dbcc81a6abc60c40be63a8d8631fa6ab566bce03561141925aa0b46c30f61c831da04c997f6e5e60e38788019f2e8c032f513c9cd070dcbd",
        "l10n\/es_AR.json": "1de9c64a13993244a5ee16563bbcf40bd2cf553af1f00d256f3de5f34580ea9360e6e499b036ee1fbe0745e136cf7c10de3fb9385a6e8e59c7a89bb8e3240943",
        "l10n\/es_CL.js": "5c4d6a0720c18127cddef240be1eafc77b69d6f43ae3e57b1571426d19524812d2a5a1c4232a429b16f62dc8814da1ab103866def48d21de86b34b512e335465",
        "l10n\/es_CL.json": "88b186c334769aaf40ed77fc57417b30ae7f2eaf7bb87be4be34364c4192688bb07dc644cb42c0ed7b7798f01b79047c6dbe7e0dc9dd41007da71549c16e72c1",
        "l10n\/es_CO.js": "5c4d6a0720c18127cddef240be1eafc77b69d6f43ae3e57b1571426d19524812d2a5a1c4232a429b16f62dc8814da1ab103866def48d21de86b34b512e335465",
        "l10n\/es_CO.json": "88b186c334769aaf40ed77fc57417b30ae7f2eaf7bb87be4be34364c4192688bb07dc644cb42c0ed7b7798f01b79047c6dbe7e0dc9dd41007da71549c16e72c1",
        "l10n\/es_CR.js": "5c4d6a0720c18127cddef240be1eafc77b69d6f43ae3e57b1571426d19524812d2a5a1c4232a429b16f62dc8814da1ab103866def48d21de86b34b512e335465",
        "l10n\/es_CR.json": "88b186c334769aaf40ed77fc57417b30ae7f2eaf7bb87be4be34364c4192688bb07dc644cb42c0ed7b7798f01b79047c6dbe7e0dc9dd41007da71549c16e72c1",
        "l10n\/es_DO.js": "5c4d6a0720c18127cddef240be1eafc77b69d6f43ae3e57b1571426d19524812d2a5a1c4232a429b16f62dc8814da1ab103866def48d21de86b34b512e335465",
        "l10n\/es_DO.json": "88b186c334769aaf40ed77fc57417b30ae7f2eaf7bb87be4be34364c4192688bb07dc644cb42c0ed7b7798f01b79047c6dbe7e0dc9dd41007da71549c16e72c1",
        "l10n\/es_EC.js": "5c4d6a0720c18127cddef240be1eafc77b69d6f43ae3e57b1571426d19524812d2a5a1c4232a429b16f62dc8814da1ab103866def48d21de86b34b512e335465",
        "l10n\/es_EC.json": "88b186c334769aaf40ed77fc57417b30ae7f2eaf7bb87be4be34364c4192688bb07dc644cb42c0ed7b7798f01b79047c6dbe7e0dc9dd41007da71549c16e72c1",
        "l10n\/es_GT.js": "5c4d6a0720c18127cddef240be1eafc77b69d6f43ae3e57b1571426d19524812d2a5a1c4232a429b16f62dc8814da1ab103866def48d21de86b34b512e335465",
        "l10n\/es_GT.json": "88b186c334769aaf40ed77fc57417b30ae7f2eaf7bb87be4be34364c4192688bb07dc644cb42c0ed7b7798f01b79047c6dbe7e0dc9dd41007da71549c16e72c1",
        "l10n\/es_HN.js": "5c4d6a0720c18127cddef240be1eafc77b69d6f43ae3e57b1571426d19524812d2a5a1c4232a429b16f62dc8814da1ab103866def48d21de86b34b512e335465",
        "l10n\/es_HN.json": "88b186c334769aaf40ed77fc57417b30ae7f2eaf7bb87be4be34364c4192688bb07dc644cb42c0ed7b7798f01b79047c6dbe7e0dc9dd41007da71549c16e72c1",
        "l10n\/es_MX.js": "d331539acd764b053e07994f4f35ef99e65e25ba6eedaeee7eb393d9e9a8c83e735514fef544a9e5977f8a25d58c2840835af2c5a09f794b670e3fc298b54083",
        "l10n\/es_MX.json": "17dd2eb8c9485af159fdd44b2a4a556804a737716eda2fd11e7d6a7cafd73bd6ecd3d20ab0b59d445f7a42d11ed59e22556ef7c6d8f4b7ffb934765dd17a3b76",
        "l10n\/es_NI.js": "5c4d6a0720c18127cddef240be1eafc77b69d6f43ae3e57b1571426d19524812d2a5a1c4232a429b16f62dc8814da1ab103866def48d21de86b34b512e335465",
        "l10n\/es_NI.json": "88b186c334769aaf40ed77fc57417b30ae7f2eaf7bb87be4be34364c4192688bb07dc644cb42c0ed7b7798f01b79047c6dbe7e0dc9dd41007da71549c16e72c1",
        "l10n\/es_PA.js": "5c4d6a0720c18127cddef240be1eafc77b69d6f43ae3e57b1571426d19524812d2a5a1c4232a429b16f62dc8814da1ab103866def48d21de86b34b512e335465",
        "l10n\/es_PA.json": "88b186c334769aaf40ed77fc57417b30ae7f2eaf7bb87be4be34364c4192688bb07dc644cb42c0ed7b7798f01b79047c6dbe7e0dc9dd41007da71549c16e72c1",
        "l10n\/es_PE.js": "5c4d6a0720c18127cddef240be1eafc77b69d6f43ae3e57b1571426d19524812d2a5a1c4232a429b16f62dc8814da1ab103866def48d21de86b34b512e335465",
        "l10n\/es_PE.json": "88b186c334769aaf40ed77fc57417b30ae7f2eaf7bb87be4be34364c4192688bb07dc644cb42c0ed7b7798f01b79047c6dbe7e0dc9dd41007da71549c16e72c1",
        "l10n\/es_PR.js": "5c4d6a0720c18127cddef240be1eafc77b69d6f43ae3e57b1571426d19524812d2a5a1c4232a429b16f62dc8814da1ab103866def48d21de86b34b512e335465",
        "l10n\/es_PR.json": "88b186c334769aaf40ed77fc57417b30ae7f2eaf7bb87be4be34364c4192688bb07dc644cb42c0ed7b7798f01b79047c6dbe7e0dc9dd41007da71549c16e72c1",
        "l10n\/es_PY.js": "5c4d6a0720c18127cddef240be1eafc77b69d6f43ae3e57b1571426d19524812d2a5a1c4232a429b16f62dc8814da1ab103866def48d21de86b34b512e335465",
        "l10n\/es_PY.json": "88b186c334769aaf40ed77fc57417b30ae7f2eaf7bb87be4be34364c4192688bb07dc644cb42c0ed7b7798f01b79047c6dbe7e0dc9dd41007da71549c16e72c1",
        "l10n\/es_SV.js": "5c4d6a0720c18127cddef240be1eafc77b69d6f43ae3e57b1571426d19524812d2a5a1c4232a429b16f62dc8814da1ab103866def48d21de86b34b512e335465",
        "l10n\/es_SV.json": "88b186c334769aaf40ed77fc57417b30ae7f2eaf7bb87be4be34364c4192688bb07dc644cb42c0ed7b7798f01b79047c6dbe7e0dc9dd41007da71549c16e72c1",
        "l10n\/es_UY.js": "5c4d6a0720c18127cddef240be1eafc77b69d6f43ae3e57b1571426d19524812d2a5a1c4232a429b16f62dc8814da1ab103866def48d21de86b34b512e335465",
        "l10n\/es_UY.json": "88b186c334769aaf40ed77fc57417b30ae7f2eaf7bb87be4be34364c4192688bb07dc644cb42c0ed7b7798f01b79047c6dbe7e0dc9dd41007da71549c16e72c1",
        "l10n\/et_EE.js": "ddf2bedabd54ba964c5b9a9108e1a7c327c19596699c3b914461280c4cc09d4f0b915dd14dd1b49e74f8c13cdf667c9f4627d1d5d2bd9b3598967a9a4dce0edf",
        "l10n\/et_EE.json": "356ddf1526a7da050282491ddb204b724516c2ab1d9d2278efbe4475b3b8ddea9d26e8b31bc96fc3ecea94e25ad994722af4ad821c4839c7fbae551fc496913a",
        "l10n\/eu.js": "ad5a95d49e7e52bd36e518f53a3825ed6c61774f964890b5fcdc7e72064e526717d0575dee577ccc3023a40f7319449e91885ec90d1e2d58d7573cf969a26483",
        "l10n\/eu.json": "a49055fe2cced5b73fe096d175f1024dff6d6bf68779eef51d625887a36d2ac50d3d0581a7b03379921ae9a4cec3bd12f220a9dabe8fc5d52270fc8511f9ae16",
        "l10n\/fa.js": "69b6a9d88f1d74ae678109d9d1200643fb32f56e60d6ea7a9a7432a1d542438d62c1e1ac19016d5cb15dcf00495890f6758bd289afa0246e2bca4224badcffb2",
        "l10n\/fa.json": "1a1efb6cdcace5ebd6fcbdc41c985e726f30882308c31250856c7d2c07fb73a20f1165f657c5d84bb61136d2dd12bacc53522682efaa27b6086142857eba3dd0",
        "l10n\/fi.js": "782221cc2f2df8c41aa2480f845b2c622135e227841a5de57d5419bfc7e8af7f2f791bc742dc64d77aba20bb083b7f6f16e152e8105ec69f80b646352e0733bc",
        "l10n\/fi.json": "fb438b133e6d7c031709116c80096fbfe754765f2e0b09f8e880e4cf38647ac86a7e988cd59280c2c445eb669525a509170c46f1ce224125d4cba6c01900c55b",
        "l10n\/fr.js": "48cf7235bbe683d41352f1b181aa245c969c94ddb43bb4c23e42276a218705b59069b92855257b29579cb00e2b122d7567afe57d73d2802e85806ed82d6215f4",
        "l10n\/fr.json": "ead453372b79a64ac1515c4ec64a87b5e3183169f003f9c9faf194b45ee23c1d9334feb0b01b4d35abd5528b96c27847a6685f73dcd3d14dc0982b833068e756",
        "l10n\/gl.js": "c661caf02a1a213351ac3f0090e20e14439e783359ffe4f71c069c52c0f4670ad23acc460cfcef7cac20512295245254721ecc070c33f5e0cb7b1ad37b94931c",
        "l10n\/gl.json": "0adeb21a18bd29b5391f4196092148d78885cd9807c7a826c3cd2366bf9624a9c6718e06143ae70f789758542479209b38347df1a5c5c773bdd57e4829d1bb39",
        "l10n\/he.js": "0e231bdc0d15ddca923d12c6cdf165b6945bd4a98a205cbab1e560d565ebc3f40d457f3ccc5780099da996e6e198674b1e0a22691d11fd2da9218ddadf43cdab",
        "l10n\/he.json": "1bb04ab956dcf96d48781d75155a81f7466b609ee025c6f1886c5d5eaeeef825fa5c1bd27a5ca97cd77f84766a080b66a5bbfce6b02fc598bdcb198b3f8eeb0f",
        "l10n\/hr.js": "6921662c85f903bdd488e27323d99d5ba10dd67c35243aee3d4ce2e8b7a0eafed5c916e9cb60634f4ffb48c7b6fcbb57ad769f680cc3f3442b9079333dd7d422",
        "l10n\/hr.json": "7daaf51b0acdd9ac48f35ab3c787853f149875f717c440dd701885c0fe56f233b8e166a16a5fda65f1893ef08c957d7f518c4cd17ef0160158d5b1a97f07fc53",
        "l10n\/hu.js": "7daafe121db0185f5a3d7be4e3112f6f2995bf585d39cd764d127982678e2427827231acc3186b491ce6a6a42b9f09d88dc403f5e6e117271ee99b89fa505ee3",
        "l10n\/hu.json": "22a6fe4278013ef4c3850780737148c98e7ebc8196836841ca82d59850ded514c8faa89b9c0f3758736c48a45e318dd9985a86eb0b07ff0a48a9e47003b0695d",
        "l10n\/ia.js": "4e767df50909a8dc8ecf332ec374e32fe6d9c8f1a6b13dc41f8e704aea62fa3baf8fa5a2b074f472e7c273cbac16b72f4179a6232bc0126575b40f20963612a7",
        "l10n\/ia.json": "c091ac2af70a553024c3496d2b55211861750353db434d863bed97caea26ef6dafa6f62201022c650a12f25f3bd84dc4036968a54b9149028666691f6a6722b0",
        "l10n\/id.js": "d434aadd07f83395d552ec9bc01bf894a8f40a1fde296707ff4e2ff2cfc3662706781c83bb7c456187fba7a3c653dd0dd7e42936c72826d8888529713d29c703",
        "l10n\/id.json": "666a1a2ee619ba04b30ab68cfec0c19e9f55f3c204dac9ec79fa22c8915b53c07c8daadad28ad78666088ac961a428ec6c648108937ed2e59b08745cbdc4192b",
        "l10n\/is.js": "182d107d99d709b3f3e015b4a21cc10018f582e9690520dc7f5afb201c29b35f3c8fdf07c5b4ca05cb169dad7b02872fbd2c71dec629ceffbe55b71affa3a87a",
        "l10n\/is.json": "b4ae27e8ca643502fa16bf7ab3f986bbf490d9f45c2b94cdb50567806f9d84b28ff69ecc5864d94de64fc3fd390e8d9d38b85ffba6dec3f3a748b23c24bb00cb",
        "l10n\/it.js": "716baa8e72428d0fd8db3d090fd06ebfd8926c044baef3a696a79c3adb4025ad3f1b3cb28ac277c974b1aacb815ac8aeea89228f11a7afb20f7866996d141fac",
        "l10n\/it.json": "890af83823036ea9556528f6937c3c13ede18392ef037a815c75e761eb0e5f2da06ffa787e648b9fbd692fb4afd9a816aa6f4a120d66350c2a0e6e84502cc284",
        "l10n\/ja.js": "aecead0af4d593f1eaa7a290472acf157ab6b145b95adb990c5f2539b1c2a36e333b7003febb9d5abb9b13a0a08ba288481783570642a8761b8c13981201445b",
        "l10n\/ja.json": "e7f06c00ee31d8f681f86e73ad09aff9e332b65142c451852bc6368bf4f198e1dbb14d1e8e2a0f9b680ab44cb6a1fa15c4cddacc94d783ccfb5a13aa61dd222c",
        "l10n\/ka_GE.js": "afa04d670dbeded15ef7f7360557c2be1f214e4631b9e38a14fa8184d0c41ebd24844d6ce5cfea63ab7263df544caa14e4c0e241adc3e3b66cd66f4fc3ca77fd",
        "l10n\/ka_GE.json": "00edd1bfafd00548c73797724e15226e3c19ce4d66af14910a2fcf0a2ddfbd9f0996d9904da0c8dac58f68f63651aab3cd5447b4735841f9275a3d19af9b9365",
        "l10n\/ko.js": "008c1da5e2e4f68c9c6a085a5fcabd59ec2878feb2e780169b5a20693908f9aa14046de87eeb7c600d91b15cdf553dacfbcb08a55d7f8039c0ddfb169d7d6c50",
        "l10n\/ko.json": "82f1e77a1b4dd08bfd9675775ac952be101cd020b74789aa361f021aaf15f8fa22d705bda0a82aba8beb49fe356a280ad61f3c00c993f1d88c470ddefe2aea3a",
        "l10n\/lt_LT.js": "853d6c7cf844cedaa9f68b7bd65ef2d6207072ae52aff74dcd33a40c75abf1db1e08d1311b00e7fc48cba938912d29bed506c41ef112726ec8a252322db87d6a",
        "l10n\/lt_LT.json": "8dfc7e6923c4630ccdc4d15985844e89f6769210b070bcbc5df373cd464fd0283ec0a358fbe77356fd7ac75d666a1ffd2c004fa4d2c9430a9ec2f58a1d6e7998",
        "l10n\/lv.js": "d3c32ceb369eba8a7a6de621b75f5a4c684e80a58d34df5a861b37ebe30ac0c47f6866b8cb4d34a45a6b0e24be21f10a78b52b2d3572bfb089425349adfe8852",
        "l10n\/lv.json": "d50258fbccb955a0f29cfc82cb755c2191077c42e7bd9bd0ed549223090681521dd2424836b952d896bb6f2c7a166fecb7c8596cb42eccf9ab590e3ad8bcc6f4",
        "l10n\/mk.js": "947ee036a0c99e8d6c7046e222a56a956b9ab4fa43421a884b223a6efdad47a2131e14a89ef7c1ffa6f62ffd2fd29cb4b4c6dab477fbbc07f5711bfa6ca58576",
        "l10n\/mk.json": "5b7737cb4ccfecfc9150c8bdc4559a2cfebed433085a6e8de8378ce3713a21563b911eaea39c9bf422e0201f98c54d82f6bd928a8faedd725bf873233e853841",
        "l10n\/nb.js": "036d60add8e388823b23ead767c971b76c034021d19d440bf727199c0f98ab254c7b009250325422907c645cffde0646e521cd9a1b52c010377f5a3df131c471",
        "l10n\/nb.json": "64f16858b08de1483ffb60797ef64b77b4fc1a1eceb98afc45c0d9aad6b9f085f631c4ed5d41c80d1ae4559710290822c3f0205ddf01c5a01823f1bd53ea908b",
        "l10n\/nl.js": "783933c8d1d47a9a5dd8b0ff67a412ccba4a20bbd9e4cb6d41347d3dd522feee4e46e564dbaa6d26cad5de9197a0be4bc49df78be427c215439d8e11e67f34b1",
        "l10n\/nl.json": "2c31621732f9a444cb43c64002689a4c30b7f361ca4ef14cb4dff8a42fdc5a15bef8cd7fa50f15204f6bdee2969694272d50fbf5d562090eaae8f810a4c7dc47",
        "l10n\/oc.js": "dffd700efa4f1a320082861cee0ecaeecae793b651507a7e2d4d523a733cbaf1ed011e7860b2341e1932267d1ef29627861ce4a9882443cc363eda9d857f843b",
        "l10n\/oc.json": "6331170777366a59023f278ee19b7e10127069eaa350a7fa00a07766170e806ce836605a21ddd0c244780ad2dc06f16d7a09c26896f02dc0f04c480e304760e2",
        "l10n\/pl.js": "6888e27affbfe4ae361fbd700d57412d60c0b7468e65b9784fa770f63291898c09299d192e3d195e4041f7f284502794dfe18061d6eca80495775afe03b14603",
        "l10n\/pl.json": "a048046419999bd0a243b240e9f9a0fa3654d7b4f99caa1b7fc352d9b3884e706787effd6650558f4e17eb1173668d008dd784030941a6d9e7fdb681849e33fb",
        "l10n\/pt_BR.js": "d5096d6c9593fa94ce6bce6c9f7fc655b3865dc57597ee49a7d0dccd5cc268686019b4f096868393c6297c8cfb31895d4850abc613e3997d8b96d8731350b63b",
        "l10n\/pt_BR.json": "63dcdb488c6fa4b9dcfc131f0217a5a8759063a3d5ad5687ad0515da49056791a4eea270d20c2c059b417e5e3f7190bcf4fecb3444fc9953e00a0e0c2ca36e88",
        "l10n\/pt_PT.js": "65ca994531961867aeec7d1b2e09074528e0fdeffba3cfdc112548f2f7affde62850f2ddfccae1175b66c46293997ed7933c61c6abeb72465808b6131cf2de79",
        "l10n\/pt_PT.json": "13410e837423362f49d95eb437fa99d2a2a7e51b1c34c4ec3e02cf5508bba1f914ee0bbb5d61dd48826820cfadf301b5584b9bc3a8872a57003a274b978efc60",
        "l10n\/ro.js": "e377f12a6bc60ea4e97db2a2e4055f09938be05216b3d5f6061b90dbad6dd647e6cb8c53d7a91762ef4f60d619697b1726539ceae3c1708c63543061bb6cf1ba",
        "l10n\/ro.json": "79c916290af7ffaa0ab1c85f88302d8d251fa391e19c11428acdb77967f8cdb26cc376731e5772575bd2f400848926a95f3589a706811fd48ecf3dd274d7278a",
        "l10n\/ru.js": "b5f8cfb7dfe77096d6e5570c55e803af0f0f7d0244773066a3aa214eee7ba26785623954e19051bfc783e97df763594b8c1975d4b337b123d6e93a43ba808a89",
        "l10n\/ru.json": "77bc908d34fa9eec9a12fbfef347cf1d469c706216fbf2308dbd6f2b4597f62a1ac68881ab7e031f3d3768669edcbe8bb8ba6f213e76ae167a33d71a78dad41e",
        "l10n\/sc.js": "41b3ddbb898d0a03399f7a8224b301e6ded336e1fe4cc6c776717edcb294321c0663688e52a54cfbac7627578256545d70b2d1e93dfae8270edcb55c0fbaf838",
        "l10n\/sc.json": "7d93c4cdffde610d60cc73bfd1dfcfaddef4138980061f131861a2337aca67dc580bf50681b7577cc49353dc3ec3e826940bf159790cb773a9960ebf2b39cfd0",
        "l10n\/sk.js": "5649758b7129cf128740eb9315a6bb993e9d06f4e4f4fec78b53f308fd152ebc070d34e1c04a732c53c932e523c0fce48da767b03ccff6d0c981eea4bd04cca0",
        "l10n\/sk.json": "31ddcc86af528b694ad7fa283ae06f50a9193d48d1e56f0a46a34e378e898d187287746548c73ba3c763c26490fc921bf90cd2d2e9ed6b71855256c8db9410cf",
        "l10n\/sl.js": "37279c7f296a6090345055212a9a74bcdf9d5125bf5552809544ea67946c77dd553cccabb0021466ce4a676df7650a217f06200a68722e08f8c05cf8ee2a043e",
        "l10n\/sl.json": "93383d74e124e107c3b7a6f6c1b847f0e4668605a14a10d654b8616b619ad3a5d5f6dac3173d9180543374a32b0d0eafe40935e9b1b620bb25c2fd208ab11a45",
        "l10n\/sq.js": "5aa1737b0f29b58e9ef5c7fd531e1a850ae9147cae3f0690d4c04c67d40e65999987d242ed768a7c205475f4e01b5fb6dc0562b12d517bcc332bd8d074017bba",
        "l10n\/sq.json": "ed4a559aa67fb928bed3d3ce8352907842f82db49d5e91c8264eceebb12caba1198697fe57df81636dc2e049d1401c7468f890e0b3ef7335710f5c57beed8de8",
        "l10n\/sr.js": "cc873a1568d32a97f11675668d6610dfc123f0d46933b6e9b46cb2e095c2969d836959b26897b2c9ebb29a27cf2968d99e1b48886a0ce690baa379b484d934c1",
        "l10n\/sr.json": "e3db9dad7daad3fb56edb68833a32a601d22b60bcd73abcafce3686b5cf47d20ec02915d6d8fa3ee45dbcad9853613f0cec2b8b897a2e693914588c169a49ce4",
        "l10n\/sv.js": "b7bb6eda14c84cbf0ac7dc8068f1d471eed9d9e7fd29d56cc064b455b771d6efe6a13b6297c14db1cf4e23455adb42a354f92a114a9c0a6d8ebd8750a2c66bb3",
        "l10n\/sv.json": "41f5891a822dabe739adb0138e2d8b224a449da7e02a314087212c1ea403396bdcd9f59ec78788a75d653f3819189b83579b6dc50d387606b9dcccb60eddfc69",
        "l10n\/tr.js": "350bb44a5d84f5b6a882cebb6e325da40fc0793faa905048c34d4891fa5080c65fe856c49ddf3e69f0c7833aec1ac93de1ab964642155dc2d99aa382f52429f9",
        "l10n\/tr.json": "e6b8316478356ece58f0b7c9cbacac4ca5a92f5a9abe5ab0408178997cfb4f687122139c492f18511bac3ca94e15d6942715e5e08531c4c84144d85ae0be8ea2",
        "l10n\/uk.js": "ea1361497e89977cef54ec6e1742e6e0b2af0cf2cceb19b05c28391cc758452cb022d9d81ac6a4abd69798ba52db91ec129503870bd1777d558900540412c684",
        "l10n\/uk.json": "56829a2259a5f9f6dfc9cb0b39ae88efa0007d688eab165576d0df412df620976e284f440ad6c42a0ba5d8b9411826dc87302458b25ce48ee0d299d9d68b274b",
        "l10n\/vi.js": "336fbf2f4c2e2e478f216c780875f07308e5e7ef46c0e36642d5a9ea8046537c9c90724f78fc4053305d81cf083cb93bfd9a685fcffc14258612d78219208911",
        "l10n\/vi.json": "2281b267792a740e24fbbe06228db38e2d31a283c9de6b207d57d31d7d964ff9a18d9dfc3bc95daa3f31813e3cd2642cdc61619929d266679c7345a382cc5dc3",
        "l10n\/zh_CN.js": "caeb1f7b13991be71f27f7d1920b2811afa6316a5493a03cf892f22c648ef770aa28a92786763118e4134b298913427994a5b23aeb7af4202b93bb3c9f8985f5",
        "l10n\/zh_CN.json": "ad8e159f27b273f0cb0eb804642ff894238763cb0639a03b525372e83a1a1993616e0b0ebdc7b27aefb4037a7e0ea811e28c65ebda096c939e9fd115a5e3b379",
        "l10n\/zh_HK.js": "edba1bbb3eb8e9ccabe2916fdd09b079ff054903a654edafcbb9f6614c5be4eb1864b95bea385ed12da19775d2338b10997a571153cbd827b932051b83fdd9e0",
        "l10n\/zh_HK.json": "971bf5ae550af76f3a6f3a4d5f0065b54f4592585aa8292a51e5451206f49664b8dc9926572d180791a3373962de48cf1048334e570b55b344e725bc486822d6",
        "l10n\/zh_TW.js": "8f87cdc83de14a59bb1db51bc44cdf73d26abea412a1a989622fb00d52685bde0e414ad9156ee682b2640a56ea2988e3f88e4bec44d9398c1d157a45c01d0b3c",
        "l10n\/zh_TW.json": "a83a5c05dbc6921d1415ace09df9fce73c0200377d9f86b3a5927119088bfd6a920aede622457c8035e68f62fe4c79d5a4f38ce0db82bb1851c4a28abd46f265",
        "lib\/AppInfo\/Application.php": "db856f9d944c69a7e1c9b55e5f32c887eef3dfbcd7834a644d6cc224fd209aa5a9e4625521edb910d5e2cf546b7e6f7d3da1a2a3bd6046fc5ab163a823bc9de2",
        "lib\/Cron\/Crawler.php": "cff9e65f4a23651e85ff8b5a84ffab13a4a26270f156f731a7b56dc9b1ee6238c58a0c3569b8a3a4632c9ec39ecd383227be3c0cb9953c35ed4ad5f41cdd969c",
        "lib\/Notification\/Notifier.php": "5225ac4679400c8aa4bc592297f8596d1de0c7ecf7118a3a9f3030cf96b36e3247b74bc8675bfa1996a7b8d482aa30406702ecd86cd94eb56459796705b721be",
        "lib\/Settings\/Admin.php": "bde5117d9836259de6db21858f7406013eaceb40f0b0714afa2ce3a08d3fabebe946bbf7d7f022a360fbe160bb2860e8b6f3faf79f4154cbcc90101035d69b6c",
        "templates\/admin.php": "6eb8a5d5e90b30c36b0d899dd7b3bcf2415e0cf153e9f8667738d11340d4892b8903b15d1a83d79877e5bc81f7db9af36077ec4721bd9bfd7408146b5902415b"
    },
    "signature": "RA1yeEjTmk9XAHwiUDrlebCm32a3PEWvPudWcT9xzrgYYgeSwjGCt2bjSyEt0nqpYS1EMWDWZgL0yn\/+lr9\/gz1BJ8u8jhViNrdVQalWB8GTui92wYFODyuBFrt3Pp+Z7m4xvYvHKMB8zbPrBtNttItleoVg0mg6bym8Ivfge7xUjsCsIObAM2x2dRc7PSrK\/7McESsLGoJAqgCmGGf2evxg9USy4Paog8\/xtxcDNc24KxgZqTyHdi\/OB\/ZM4Io014rDSg0JCoebDiTWmIHzrOfQXmJ+Bkvmq235bhj38C\/\/BaTc4EuH4GfcY+RfAoYn1hzDdCUkhjMV03dumyi1Tw==",
    "certificate": "-----BEGIN CERTIFICATE-----\r\nMIIEojCCA4qgAwIBAgICEAAwDQYJKoZIhvcNAQELBQAwezELMAkGA1UEBhMCREUx\r\nGzAZBgNVBAgMEkJhZGVuLVd1ZXJ0dGVtYmVyZzEXMBUGA1UECgwOTmV4dGNsb3Vk\r\nIEdtYkgxNjA0BgNVBAMMLU5leHRjbG91ZCBDb2RlIFNpZ25pbmcgSW50ZXJtZWRp\r\nYXRlIEF1dGhvcml0eTAeFw0xNjA2MTIyMTA1MDZaFw00MTA2MDYyMTA1MDZaMGYx\r\nCzAJBgNVBAYTAkRFMRswGQYDVQQIDBJCYWRlbi1XdWVydHRlbWJlcmcxEjAQBgNV\r\nBAcMCVN0dXR0Z2FydDEXMBUGA1UECgwOTmV4dGNsb3VkIEdtYkgxDTALBgNVBAMM\r\nBGNvcmUwggEiMA0GCSqGSIb3DQEBAQUAA4IBDwAwggEKAoIBAQDUxcrn2DC892IX\r\n8+dJjZVh9YeHF65n2ha886oeAizOuHBdWBfzqt+GoUYTOjqZF93HZMcwy0P+xyCf\r\nQqak5Ke9dybN06RXUuGP45k9UYBp03qzlUzCDalrkj+Jd30LqcSC1sjRTsfuhc+u\r\nvH1IBuBnf7SMUJUcoEffbmmpAPlEcLHxlUGlGnz0q1e8UFzjbEFj3JucMO4ys35F\r\nqZS4dhvCngQhRW3DaMlQLXEUL9k3kFV+BzlkPzVZEtSmk4HJujFCnZj1vMcjQBg\/\r\nBqq1HCmUB6tulnGcxUzt\/Z\/oSIgnuGyENeke077W3EyryINL7EIyD4Xp7sxLizTM\r\nFCFCjjH1AgMBAAGjggFDMIIBPzAJBgNVHRMEAjAAMBEGCWCGSAGG+EIBAQQEAwIG\r\nQDAzBglghkgBhvhCAQ0EJhYkT3BlblNTTCBHZW5lcmF0ZWQgU2VydmVyIENlcnRp\r\nZmljYXRlMB0GA1UdDgQWBBQwc1H9AL8pRlW2e5SLCfPPqtqc0DCBpQYDVR0jBIGd\r\nMIGagBRt6m6qqTcsPIktFz79Ru7DnnjtdKF+pHwwejELMAkGA1UEBhMCREUxGzAZ\r\nBgNVBAgMEkJhZGVuLVd1ZXJ0dGVtYmVyZzESMBAGA1UEBwwJU3R1dHRnYXJ0MRcw\r\nFQYDVQQKDA5OZXh0Y2xvdWQgR21iSDEhMB8GA1UEAwwYTmV4dGNsb3VkIFJvb3Qg\r\nQXV0aG9yaXR5ggIQADAOBgNVHQ8BAf8EBAMCBaAwEwYDVR0lBAwwCgYIKwYBBQUH\r\nAwEwDQYJKoZIhvcNAQELBQADggEBADZ6+HV\/+0NEH3nahTBFxO6nKyR\/VWigACH0\r\nnaV0ecTcoQwDjKDNNFr+4S1WlHdwITlnNabC7v9rZ\/6QvbkrOTuO9fOR6azp1EwW\r\n2pixWqj0Sb9\/dSIVRpSq+jpBE6JAiX44dSR7zoBxRB8DgVO2Afy0s80xEpr5JAzb\r\nNYuPS7M5UHdAv2dr16fDcDIvn+vk92KpNh1NTeZFjBbRVQ9DXrgkRGW34TK8uSLI\r\nYG6jnfJ6eJgTaO431ywWPXNg1mUMaT\/+QBOgB299QVCKQU+lcZWptQt+RdsJUm46\r\nNY\/nARy4Oi4uOe88SuWITj9KhrFmEvrUlgM8FvoXA1ldrR7KiEg=\r\n-----END CERTIFICATE-----"
}