{
    "hashes": {
        "ajax\/clearMappings.php": "e519c9d2aa3d968bb67cbc218cff1f0e6ad5c07f015ba130417b939c0c1383dd4df6ba73ff5b57b25b3a999e6d03f6b049c51bf79cf3d351302626db82c46964",
        "ajax\/deleteConfiguration.php": "2e7a631502f03e92a0af029e0f34a0d9884543e5d6cb6806082ef352ba211cdb7be020c8d32a78a950a1d7a6e30d4e819a55d97d6a56ba773071e3e4e847b11b",
        "ajax\/getConfiguration.php": "9e70faf3e2d6d281300bddd05090d5c6fa281ac00fd2731b7bf9aad94b3bf852d3f3f2ad8269c0225d2f332582b0abe8a506a43d0fd9baaefdebe25a40a5f492",
        "ajax\/getNewServerConfigPrefix.php": "65e58bbbccf2d0f625676a89b0d1b445f4d3d3183a0df7ecef8e5b62d2fe80ac93b47858da0de9bd4c80277417581b8bc1847208dfc3407d3972629ddbc55b50",
        "ajax\/setConfiguration.php": "560264d6eface574d0693dfbeae795380906d2dd1555362dab6d430b90168b16e69b448e43fac65837740f33d27be8f6887160af8fa9e25a3c009de382ecc787",
        "ajax\/testConfiguration.php": "f305500fe371edfe3e1986653fe766bd2ff0f8b485f86d0b8a071e220afde40ecb42e105f21d5c53744d135355a438c8163b38e8395a3200f8b68ad9c407b143",
        "ajax\/wizard.php": "3c76a68794d95505092a963eef84b862bf14fb608770b605be2d1e291be5157adff3f2e0144e23c2bdbf2f69cff9d282b81803aa279f1b5fc0e5ab68b35ff142",
        "appinfo\/info.xml": "c1ada2d64db6b975a3af9b9f44b7d7d4f60e97af33741d481c6a3e8a09273647b8972ff322d20bda5bf4177b7225e553512326b617f1ef3c7e7559d009b907ae",
        "appinfo\/routes.php": "f0877ccfe2c200c9df3a5f6bf1c9d9e4b8863774024453861620755fb53c5da44f1ab78928df43cc6f1fe38beb3ee6efee34ddf1887499548396c214f5520d6c",
        "composer\/autoload.php": "f153608cec483d291ed1c488f0ba8d06dd8b8fcc13de6fe2c9ce1fafc14cc79881dc3a5691ee4252dfbd2c84b2796f13d2b2385da0906cd04ebf69c3a7d18540",
        "composer\/composer.json": "3df63a6d4ea53ac3fcd1ab4a33620587353739d45e9d891e169ba515d1f74f5d0f10fe3fad84c64ce894c61c71c6450294c857d8cd2a4ab05dbd3548e3ef37fc",
        "composer\/composer.lock": "aba0413aa705be0d0570c496a43249c551836824e7a2b4673b51838fe0d9f425ddd07b6c4b95aa74ca549f58e90f2a7d78b51a2a3080749a5dc2e4a46d04fd1e",
        "composer\/composer\/ClassLoader.php": "a6884d84d11c4bcc2a53f86929ad8f519d5e1cda93724a3069df108b91a71345e59f2598cb0361ac0f88576fc03315a4158215b33e9609d8f07dbd3819754d61",
        "composer\/composer\/InstalledVersions.php": "733e68c171cb9e44868bb0f105850fbd0e4f225c67235bf30fb2ac5c3443c6edfb722d4b33aa91c82bb600e937cb6392eb1883694d41616e66969d7d42e23b4f",
        "composer\/composer\/LICENSE": "f3bb64009f41a425df5a9bbab53490f0eb9b74fa8d6aaa2f57efb928edc4ffff330260666edeaa04a91fed708c3663371cf01b284f3a08d6698aaef7a23f355a",
        "composer\/composer\/autoload_classmap.php": "a6e2be2e264fc065c448384d54c2e8f6a9c572c7d6d145c6ed53c68a834f0f21ff42cb1c322cacd1ee8a81758d208773647cf7219b98b45abb513046480d1c5c",
        "composer\/composer\/autoload_namespaces.php": "5b2571f3b573a778d362b8c7412787b4084c7f27d3f5bba1585243f3ccbb0b9054e68522a22a1ad59ec11097b03a0e343865c0188c65b25f0a97e24e120339d1",
        "composer\/composer\/autoload_psr4.php": "74e7256f51bc448eaf9d86165795fa8795d9f877f28540fe73ef43182380d52f0073041c76fd44409937c23dfc8e656d6ce767bb1ade5f5110774bbed7367b6f",
        "composer\/composer\/autoload_real.php": "4c8e2e5ab8f2b66f61b922f6d010dfda3a622872cb387dcca655e2f5e1d7386afe60ea980731054a834a898d903b926e55baee2fc984825ff7afc24ddd784bec",
        "composer\/composer\/autoload_static.php": "474a46495f38b4cc77d0526f55589b8300386b7f456221def7db0c03c2e74676293f17b5410eac5e4d55273498542c75b20002890facf91c0222ebcbc94a9c47",
        "composer\/composer\/installed.json": "0a3ed51f953eb945b970a8eb21957ca2beee4669c7d0d9be97b8259c391b60688f8abb78d4b1fae5e4e2ea5e3d8747f4d35f066a2605e9a76f5b45ec3f1da357",
        "composer\/composer\/installed.php": "e6858a3fc8f40144ee72d1ab87b5431a4f3246ac64d53bf639efeb6636392372bd10ba18a0b1cbaa483b8c05a1e35af769c457447ddb10af2cf00270767adb22",
        "css\/renewPassword.css": "94c76430e2dcfbf27614113dd7caecf0a213d695318eb267c8c20e6ff107ea261905d8ae926073a15524c419924dab5951fc3f11e188b4a0277a54f7d826b8a6",
        "css\/settings.css": "5d1700651556434a0af746f7c28b374094411094349d3517c2f00f19a553b850107e51f5a6927c42de8208b28389ba5f167f4a98b7be4d6c963d94600c04c0cd",
        "css\/vendor\/ui-multiselect\/jquery.multiselect.css": "cb29f588e4aa9f3d460315384940abc481b7121fe18ed56077e8e5608dc4dc01df1083c76871ae7109228a3b1a0c169962fb901bba323d91f2f4e5e2c16dff5e",
        "img\/app-dark.svg": "80a94292292b8cf9b9c3fb26ada1692dbf1f45b2ef72621dea6c9c62ef888fe4a37e40856fe6458f45ee7f9e0f0c0efa32c5753947f3076c2eb8081a2a0e8b59",
        "img\/app.svg": "7d20f6e7b9d1a21dc7aa7651636ce011343eb94c6cc921fa52c2a0af354afc38ba961d0d956910f3dc71f0a0f73fdde06a3d6461e3828bb884e467c3b140bccd",
        "img\/copy.png": "973d218d92d42ab2b2a9109270668d3dda5ce47e8c78d4354602b7c602f8aa935abf0efa0c7b82dc085be3850642ef611902ea43935db64ac8c200b852533efc",
        "img\/copy.svg": "76b1bc478541085455a8d7ad5d115e6f8c405f9ac72f72711f927ed3d9360cd0b149398351f1064f17e1c693c367b53101dd864833eabeb8404310eca8b97806",
        "js\/renewPassword.js": "9e8e7baf67588bd5cd21a147b775182831be040be55beaebf34f0ae604a3cce10534d33905487f23ff43e724514b73443e8c613234d72daaa30202acbc408d3a",
        "js\/vendor\/ui-multiselect\/MIT-LICENSE": "b27f1e9fc12aa2f9fb5cf3db9f24141f158e82770e8a00fe0ac464478ce9803d2db7d3e5257cf6597adf6c2c3a2b28c0adce530f5a72698a754b0a0983bf8c1c",
        "js\/vendor\/ui-multiselect\/src\/jquery.multiselect.js": "8a30cdb626fe10b5a93ad61bd2eeb39c0628ee1bdeb9fc7bb1761a1bb972c9768a23c6a24e613167ccd49b93a50688cefe22001daa9627e89a1055b1d56cf700",
        "js\/wizard\/configModel.js": "e6bffe941992874a9898300eb043aa6bf8fb81845869ff4301a07553bf67590f3960be6dc2c63bcd071024a10c5ae8d7d9284b5db83374b9b3f486d2cb383760",
        "js\/wizard\/controller.js": "831dc868fc1ed9cc890214c7d8a9537d8e20ccae56a1c2cc5a8177acfbf3aa569597f51ff72038adf2de917eb762f69a61b7e9d6bca2e135bf5c980cc23ac933",
        "js\/wizard\/view.js": "ecddab25de652d1bbf359e1fc7b6a860742484d5498ecd8668f8c7969f5627187a7a426a9853830fb5723447584b6f72a80e03967c6a49224d8e0bc29a2f8a36",
        "js\/wizard\/wizard.js": "80032cbe47052bee60f54fe48995c70e19d07b2c0164fc8cdc804201619fe159c1451aa8de3863eb25ce988a3aca4fed7a21dac2a9961f80a461c67f0d4643fb",
        "js\/wizard\/wizardDetectorAvailableAttributes.js": "770526bdceda18fec8fe5f1b7b3ce871a1928264091864834b612afbeeb98d020e9f769ed5873c63709e41a50d2605055ff4e992770c8b2760bf1118a1c87de2",
        "js\/wizard\/wizardDetectorBaseDN.js": "88e9c3fa81a98198f4865e9a5024e5b5b35540eb2fe9032e6d8e90e4bdaed06432be69e3087099db1301e09b0ef72e49dc28cdf7e979863282576ce3b61f006a",
        "js\/wizard\/wizardDetectorClearGroupMappings.js": "b43b6bcf2f476206055a24f887247ae0e5615382fbc586223518ce8836fe899eb4fa5d3993c12b714a3adb8d4eeb7f77200dd4408344e0e629702c8b7fb7b910",
        "js\/wizard\/wizardDetectorClearUserMappings.js": "7e49a02453d17edf4216ac4f8d1a20529db500fe64dee1aaf2e4502fe60de88510957212c2a8fe246e38ae27180d64c386358910ff2f3dc6b7486d82d66bc6cc",
        "js\/wizard\/wizardDetectorEmailAttribute.js": "f6f3723aab647fa6a2f38a52a34a29ff1f89126698039b4090919486c60a69a6f0dd62fc7e5458d7a1991172f5b1a1afb5380b7e8ef09f293dad474f7684fa0c",
        "js\/wizard\/wizardDetectorFeatureAbstract.js": "730b67df59068523c892f3148c55abc6408461b3c9b72976574c83866b11298368447cbc897d0237f4b5ce94052c1084d3cf2407d4843ada43af4799c206554e",
        "js\/wizard\/wizardDetectorFilterGroup.js": "c2cee452b2a91a84d0fae2054648b5720ee4d863b7233190a3b6bb54f82499c0e2d7f08a134d467044920149b3c47f5a9e1dbca22292bdca0732c2199b53004f",
        "js\/wizard\/wizardDetectorFilterLogin.js": "8b0c6b6b05bf2e4b4c94fbd5f5e75659c12a732ee0df51f3248660cdadbe630bd2e4cc54a03724c7befeb89e2c2b54fb2a3860d3fb338bc3f8f7bbcff4662a31",
        "js\/wizard\/wizardDetectorFilterUser.js": "af7d0a80e34012152e6e7f9f0f0edbbdf36a364bc693800bd9791205d6c8fd809afac9cd5f8f965f96491c40bcb8e6a02162ad73b07a12b4809ddbb22cb06f4d",
        "js\/wizard\/wizardDetectorGeneric.js": "cc4dc083ec3529c5316051be091367fd66a8e8b9499bcd491dc26f831bb8582219b7e9be6517e95a52872939855d118ed17c6dc376ed2c440ca5a91861c9a926",
        "js\/wizard\/wizardDetectorGroupCount.js": "47fddf38c98ed7d165d034f9367370dea3b5b00f1c57c2bc57554a53a64c4010e80e813409c64409f04bbfacaa64d10a12ed2c686b06f9734fa4b754627cb221",
        "js\/wizard\/wizardDetectorGroupObjectClasses.js": "b898927813e56fb6be073bd1b2307ce0d28d5ff96ec158ffc9b7b8c3ccc47e0be8dce2eb4d940dc1954eafb7af5c611a0fa0c456b1ea89ee755a56414b44538a",
        "js\/wizard\/wizardDetectorGroupsForGroups.js": "af88cd6550dca7cb3aec7b15640de0e54d6b58ae9b6c3b9004951bc23ee57ecebedc93b2d423efc822a45aeea9b05290888565381e1e0c7969ade90d2ebbdc57",
        "js\/wizard\/wizardDetectorGroupsForUsers.js": "848df2ea9ce6b2f5d5c9ea2ae488b5978fff6ad88e917a3a7b7de5c3ab6e58dd2c33cf2f945463df648ff7d4a9cc735520643a3dcc7c802a3340ae0f373bf722",
        "js\/wizard\/wizardDetectorPort.js": "c59500df1898bace884ef067254efe4d62456687d75f2bd626c74545163845972d911c1a766aa980fd4c13be644b7f28ac0793c43cf6d5ed3d068c282c9f202d",
        "js\/wizard\/wizardDetectorQueue.js": "55e826710e56d073fe68a3ec9865a2939384b78bf1e00e18291ee49ad5c9aa741bb12c7a24d59895d89be255b2a8c8a2b544403d9eaea5a2b14a12679dbdc587",
        "js\/wizard\/wizardDetectorSimpleRequestAbstract.js": "7985a8dcae3d662477e30e4c4cd6b10768a0eadf2b29f0760c4e66658e0a44a30e18ec23b098b27d24c8d6f00ddf7558639886c4f82f1e2cd651a799992f69bc",
        "js\/wizard\/wizardDetectorTestAbstract.js": "723ad0ca8d5c7279cf83d0cfa809cd9a141a5b015a2f23255bbca40e89c79aef8e5b7a4f4ba1fefa2155dd3f2815a6036be8dacc2a35082e91214252d713d22b",
        "js\/wizard\/wizardDetectorTestBaseDN.js": "fdaad3843ce8767bfa9525359142c9e54636d629d45b9b7d082f69b791a3081a16e5c4939fe441bba2eef4b604c0072ac2319a090a82a7fa54362f829afb7a6f",
        "js\/wizard\/wizardDetectorTestConfiguration.js": "27b50b7564e58478f1e7a1b1918db26231170bd6264b812ec6047c1e313d640914e3fad568d8aed2b2a01be317e9d315752d26f42b7d7662ac8526c288ded009",
        "js\/wizard\/wizardDetectorTestLoginName.js": "002517d45aea4e7456ceac1c6add1f52b3a79df52af0ef0e1fffab84ce59f858d33334b33d7a4fda2b936883e8ac5986eca933b55e705f850e0ac06116a3420a",
        "js\/wizard\/wizardDetectorUserCount.js": "ac37b9bd82046afca6211a9c8daa3cc5abe59010c9266ece0ef7b6343ed2ee6448b41669b2698f228f87d0abe41a6b9ac0a22a5bc279f9af8ba6de4aeea3a8fd",
        "js\/wizard\/wizardDetectorUserDisplayNameAttribute.js": "3c5b50c881d61ae7f98a48bfa5ebd0de02435f3475f8c5dd5f3c2f8bf11ecb5a177efcf4759bd069ed896350cecf430b35730fa8163c1b3f39595021490e00b0",
        "js\/wizard\/wizardDetectorUserGroupAssociation.js": "595578d2a2ce0f7ceaf3e702536d429b65a75419823f54c00bc10f4f92a32fe4513d0e53447798372f94bd416cacc2d2a1015eedb647e58af6fa49ec950b5fca",
        "js\/wizard\/wizardDetectorUserObjectClasses.js": "33dc057794b5ff169a830ca735f09c86beda21b0d166f15f1870006c5bde25fdf2ca02ccf936a51400b2873d27da95039f227bcf63d3844d8b272fe75f726cd2",
        "js\/wizard\/wizardFilterOnType.js": "44f8424bdff5d5af5b34d52ba8e719a7cef8331d49a414c326a6ece727210b3846d37867f7bc9846e7a4897529ccf95121a2106d19ca7c3f05b885252ba36a6c",
        "js\/wizard\/wizardFilterOnTypeFactory.js": "e4a167d6b4c2db7630defe05b944a38d8ee4fd358cc9b5c206391e5fe4fe35237e08f3bb511138be16fc21a5fbce6d54b55c8ec9b03ccdd33fdee250f55b989f",
        "js\/wizard\/wizardObject.js": "d76fce9ea1abd4618012113bb9eb92e0e35de8277895d7e45f5cb616eec2c634078fe3ce6a41dc3b4f46c64240d9e831b0ce48906fd10a7172c15a5ff9833d29",
        "js\/wizard\/wizardTabAbstractFilter.js": "678ebdf4163aa0c41a7837e7640a5afb8cd6e64cc910b21e048a1bc7264d2b7614290881b8ff1286376de68ad75b7dd4a7dd6759165bf6a7db03eaae5b892b9c",
        "js\/wizard\/wizardTabAdvanced.js": "4eb28c7a55ee7297f559a4aa27748969e33bfd6a6d1bcd8e8b345a04d7905bc6fb5d0d48a32c2fa6bb1e7099c55e41293751c70b71d04271b068b8bf8ac769c2",
        "js\/wizard\/wizardTabElementary.js": "8c1cb7158b48e0478d1cb6e5d47119da5e7a47c0aa26637b30a95ca97cf9ef1e29cf37eb661c8ca7fa2a6fea06bfe57fbe606bd9aee8d900888330038cee19e9",
        "js\/wizard\/wizardTabExpert.js": "d6f66796a952238548d4b3bff3ad5a0f5a96c5ff179aa3e6de686021f6a7034780e221058f5f7cb49da77a9b1c1d912dc8b3cfc73137351dc748d9c9c2143e8c",
        "js\/wizard\/wizardTabGeneric.js": "0edfd91dda6b8d2a70383674764608d9f6e426fdf74eecd5f92e3942d63bc3ea5ee58f40161576780ba2ff4219f7f91dfa0a03282807df72e4128214f2fb68eb",
        "js\/wizard\/wizardTabGroupFilter.js": "1d8577373d5f68cb49234155553f4f9af631604bd02b57c25416f500086170b7ac8a579c82e8ed4dd9bad46ae6ec2a6b258555458870c0438d814e96e5f96b37",
        "js\/wizard\/wizardTabLoginFilter.js": "d6fca8c3b65177e3dfb62baee0c269c9ff95d961d76d7a73b667f3dc0f856d6024ccc24baf87c9a7aa7e63ccebe6de0ab3437ba9b0d71c2adacf1c95a785456a",
        "js\/wizard\/wizardTabUserFilter.js": "7150fb8f4159b65080b03194a6b62111b28ae83013a5d7c0816eb93d3bd6762341beecee379129eda6656f6f00931c0a66b1dd5adae1b8ecdbb7e168acbc878b",
        "l10n\/ach.js": "584616c60777f992280413b3849fd779c5f8e1b4da2f4cbd3864dc35842550e01076fad35a6f95ebed4f32436db05e70f613e95e676a83add0e36232b922a0f8",
        "l10n\/ach.json": "f3711573f0f71802cb423dd9c506c602996a7fbaab151df96a39f5049ef4f15617fc771d71766cca8f22e50ce5c5319f4438add093fdd0a1b73c5344d8c34348",
        "l10n\/ady.js": "2e1675519b2c15d726505516d09fdf613d56907e3bcd3fc31c06dabb13639ab436a0b95879dfa115e53996070264b9b4f2555ff31ba58f89d4082d76a5e5c2b2",
        "l10n\/ady.json": "0229170d1834bb20c391c0a9fd4dfdb43d495f2b9489f5c46ac5a673acc15f474732c222e4e5c79aa6221ab1fcf0ce298ced0b1111cbdc7fc36198dad72ac8c6",
        "l10n\/ak.js": "684c1f70d99dabf5d979146e9cfbfea53c084a1fefd9c6a0c554f5a791822a88782f10011ae52634ef3d563a070e870d108f30705a47dab9e9498b92660ecfd5",
        "l10n\/ak.json": "fdedcbc0ac85c73ec9e5121f515df2b2a2a35a08c0bec811d2e4672b7e609a6a348f062675c245767be3be16e4b5e54699fae6b5af07ce2d09324bab24669277",
        "l10n\/am_ET.js": "2e1675519b2c15d726505516d09fdf613d56907e3bcd3fc31c06dabb13639ab436a0b95879dfa115e53996070264b9b4f2555ff31ba58f89d4082d76a5e5c2b2",
        "l10n\/am_ET.json": "0229170d1834bb20c391c0a9fd4dfdb43d495f2b9489f5c46ac5a673acc15f474732c222e4e5c79aa6221ab1fcf0ce298ced0b1111cbdc7fc36198dad72ac8c6",
        "l10n\/ar.js": "722a73cef6e346c23d7a04b9e29ceb9fa91f6d92a6ae0e89d5722972a753dbd62f057704b1ca762315c2ada3d7afc227a3f4f1f988e671a12dfc9801f10632ff",
        "l10n\/ar.json": "90691c6cbaebbc304979c248426a46ede9ebe7aadff04138dd83e0141f77218bbbd38f01869dc08da1215efb51d334dd662f96c1fc499339793e2ceb6ffac054",
        "l10n\/ast.js": "d4354d029f6220f41dccc74114e70d35ca61899b4ba4f906dc18d3ee131b38dbcef6907aab0b58784c01f8d72bdbea85f6a2ff351d05efc1b0d6fdf8a44143ec",
        "l10n\/ast.json": "77de885eededac857a5f89612e348b040b64ea322c7bc31cfadb3b174a3b4ed00248488b339034399596079b8a9dbbd7a588ff8c5f502d67bee6700df77cac10",
        "l10n\/az.js": "e3e2852fce6e2e87a0556f0370872eff673b7ea1483c0b483212bde0394a0ed8df4ca836de080d6a7e9f7778baf415a76ec03d4615ee2894d99407547d9c9d1e",
        "l10n\/az.json": "14190932496abbc90e7ac934f0731e5b6b3d5982f27881a60a55136404cc97bfc6bb9e3528bd4cb7752545b14bab2b0b7e5a96d5eac7c8f5e9bf3633fe787d3c",
        "l10n\/be.js": "5d6f40227af673a9289b7e2adddb328440fd3760481977281f7c1f2a8d04d4c4a8c75a7a843aa66f6aa8fa1153de4b40c7b8d781692d3036d4889b68ab34e26e",
        "l10n\/be.json": "59c943178552b703fa989e3cc1c54a56205c0d8e1a1feb3cc4f1a88178eb289579814612f6bd884092d8540887dd1829e0cbd8c38f9557ca459f80cf7bdf5b56",
        "l10n\/bg.js": "45f0256f34a7699c287ef37f4868bbc9c81416258af041cb0333429fcba62c4ed970735d134fb1f59c570e673c2e82fa3284071915458c2ef1a0ddb6a58d63e0",
        "l10n\/bg.json": "a9e590a0e0fcbcd70e34a829985e2add63141e407e34052292cb5855153c68cfb9d8bb5739522fb8d277699e87a71ed2c5398553af3573420695baf573761d90",
        "l10n\/bn_BD.js": "b494e45b53a4c475ff98cdcb6f82a4b4fddf4b87443743baa8ccbb8cf0b4fa7992189a881aca90485e9ddfb3bfae6af60db6bbd1808d06e72bc91806039707e9",
        "l10n\/bn_BD.json": "150e514eae5ff7dfc65366a9046da727552595ce9a0096d9a2543ed3505ff0ab07014e64354cbea5321b07be0bd4dd1074ae72810e52cfb9b22c76702c9de76f",
        "l10n\/bs.js": "35af64cd9ec04e8ccd830539bd812534879505314a1c717752bae305f7280fded2e4cb3e91a28b5209436de780eb040d48fe443bd1427d0aae8b14b97f335123",
        "l10n\/bs.json": "b452d8d5e32b4be8a224061d1a10c090bb6360f7a85ab370195d999cd4bd57cb1b3caafbdf2e0b78cdc4af4c0bd191a988bad41d7d637dfa762a8b4755d3226c",
        "l10n\/ca.js": "8a8db2620e5d3e9fe74628ed67cf63281bfc92b7c2c6987dbc7135c4a2cbcc2c60cbbd320dc3bddcc6e855ed94653348ea7b57aceb1e8d22e3b09bb76dd661a9",
        "l10n\/ca.json": "744f11d385c1468f13176d017ccdea64320126a1b56bf05ffc2aabeb39071d64d65715d98a326f7a3f75d6e78ee9df21d77d83868e79cededb05d3eefa1e34ff",
        "l10n\/cs.js": "482dc18979de6923de558b7af6264c0a5301358ee259f833ed86321bcf53be28a6a59c00ca90d15b606f7be1bbb85f7a6ac7f1330bfc34468185e2bac5bd6c13",
        "l10n\/cs.json": "a3c358326216cbd718fc44e1650b024e27bae556fe3f7c83c6784f23eabca5a385aeaf544ed67362eaa3a7bbbf560b0f0083e178736a7446c2e84d82b4be2ae2",
        "l10n\/cy_GB.js": "44b83608ff038ae1af4991fff868f747288204437c28162de4785f78891815f6fadbba30973b83755a7c30616dd595bfe5d0bc1e7538120751e470ff24c4f1f4",
        "l10n\/cy_GB.json": "9d583b7df484bd674ad4c76a3706588e56d252fe26ee40a757a01dc2a80960a53f366755be605441678d99487b4bda167e711520fe09482fede22a2798f1d9b1",
        "l10n\/da.js": "c8972b950d2cc87cdcda21ce8367bbfaf7e7de0dae887b1456391b4ce62e054f8dd8ed55e37e6d0b6bfb81456787ea4453e071f525820b40afde67a8abfcdf2c",
        "l10n\/da.json": "e94187d98f352eeb75f7ce6b7507a071a5be22031a75fa13777ed2a6c0458bea1bba4d9e3060c18205fc91c22d6649a48941f42eb7e5d6b11017220f24ef3f1b",
        "l10n\/de.js": "bb54e18aa4772a42aa22bb898e116da92c7f0a8ef05c3301ca4ee6ce3f66ae0242c4a28f379a0a1c71a4201a3ce5cb9ecff51713f8eecca8aa98778b3c98569d",
        "l10n\/de.json": "9a7e9846b05f33e3234a71688dd4ad2913c3f09718893acafec858cd42a1ee72c369a06ea95da717260a4b1e72cacd012fe6b3f5babc5f6cdec391821ad84aad",
        "l10n\/de_DE.js": "a4d0f43ecfc8d286372ba417fb7a848888577e31c665a8166307d7f51d9637650ba5087b800d1af673fbf26d28bcc28459d1b6ceafc3a9fd0e8705e002a8e13c",
        "l10n\/de_DE.json": "822501eb0cb025c2a3ca86595a4190e54860d832a7127ee7567f9d1a51a96c1e15b5f51f75eb2d6791854c0c80df0fa3015589f97970b4fcd3b88a6319f9a781",
        "l10n\/el.js": "0e8face75aedbec06b35c854f8b96b1c7cbcd1f7bfb5304243fe470c8e1f2ae6fd69baf9b224f216374b2ebcef46300fbaa6acdc1c9cdd8b5bade665f77a0627",
        "l10n\/el.json": "75d638cbb72419dd53e165b9c2f1a10468985897c87a7568639662c4b20d1e5f0db8bf1d6ab69a57e599ba8dcc06f214d52d4f7ae612590c93f113aea4f72523",
        "l10n\/en_GB.js": "086e7b47dc5cd5c4bcfe39503f217230b3012baf4bb8453526dcbdfb50ef1a4387eaee308055e6f6126de0256400d2dc0482fa92b4e629c93a49fac464443043",
        "l10n\/en_GB.json": "4f6286a1b1f911a3d010a311817ad44072b27b330cfb10bf2034e609367606231cbf2387d4e724585ae39243a3d9479c142dcc8b2d2c95ff7f2ac0efc557b014",
        "l10n\/eo.js": "4769be5b1e7e1d688db0ce7688a94735e4e02cf44066a54e4c1a4dbff986777c3589bdf6a781746cbee1023d73a752b8630a27ae1bae10a394ddaca537d319c5",
        "l10n\/eo.json": "036d8e3864ba0697427c16671eb600cb64c46e5262d35af89e6b6dd97205e0a69d97f5f31cad9c97231c9cb35d25ba5c863425c0875680a66d54f434681c80c5",
        "l10n\/es.js": "a0ca1cf63d164bcaa7f0ede0ef0f4b0bf12a3221aaee6ff64e87fe992d2765e59efaa890e6c25703131bfa4df9fcb15bd82037203950116fcdb43664b8333117",
        "l10n\/es.json": "d612b82d7250a4b64c86dc840be5f9cd8465e7129eacda5eb669009cb51d6740316b622964f314d16c190d38ff517725cf14478edf98e84a8649862a9cf2cc8d",
        "l10n\/es_419.js": "3701b28c2ca58a1b3fb26a66ee79f61724aafcab57ff316d821b4ff8284a95241a5bd0893c6740b7a86a117e1e9955feda6e9c2b0939eced69e98a11a0cf5572",
        "l10n\/es_419.json": "2fa62543a2b6c49f8c39acf76f64691932b3d91bbf061e6d2abb7a7abf74d7732cf5533a14de1fc1f3701c404b26d685ea94627c5ba39d6aa0c008f116591a98",
        "l10n\/es_AR.js": "53b4adc6d36ffc488843808f65f629deb7772b8f536c77894a99c5a00a69ab64c56efc3997277047bd03ca4a0adafbdcf4c089c03a7885be324f4d13391a50fe",
        "l10n\/es_AR.json": "023c6d580aa5e387143e180f7fcb822479ad9c0f07ab18596b8f2dd8727e4981b8044975406fddfbc5a674ff5069a492d797e45a57cf9d1fbc58db41743bf52d",
        "l10n\/es_CL.js": "604d26d5c206bac49dfa811469d932f11f067bf35ae2ecac93108a2a8984034c8f9edab1d5c23cadeacbcea94611af1d6fff20ab6d32f68b145d779e41135e9f",
        "l10n\/es_CL.json": "616f996913d04c23573e459db11df15525771befba24c9861b58f74fc802f7519db9c0bc9664593314474b9e23804dcdd58c15ddbb005b5ca796f4317cf32140",
        "l10n\/es_CO.js": "604d26d5c206bac49dfa811469d932f11f067bf35ae2ecac93108a2a8984034c8f9edab1d5c23cadeacbcea94611af1d6fff20ab6d32f68b145d779e41135e9f",
        "l10n\/es_CO.json": "616f996913d04c23573e459db11df15525771befba24c9861b58f74fc802f7519db9c0bc9664593314474b9e23804dcdd58c15ddbb005b5ca796f4317cf32140",
        "l10n\/es_CR.js": "604d26d5c206bac49dfa811469d932f11f067bf35ae2ecac93108a2a8984034c8f9edab1d5c23cadeacbcea94611af1d6fff20ab6d32f68b145d779e41135e9f",
        "l10n\/es_CR.json": "616f996913d04c23573e459db11df15525771befba24c9861b58f74fc802f7519db9c0bc9664593314474b9e23804dcdd58c15ddbb005b5ca796f4317cf32140",
        "l10n\/es_DO.js": "604d26d5c206bac49dfa811469d932f11f067bf35ae2ecac93108a2a8984034c8f9edab1d5c23cadeacbcea94611af1d6fff20ab6d32f68b145d779e41135e9f",
        "l10n\/es_DO.json": "616f996913d04c23573e459db11df15525771befba24c9861b58f74fc802f7519db9c0bc9664593314474b9e23804dcdd58c15ddbb005b5ca796f4317cf32140",
        "l10n\/es_EC.js": "604d26d5c206bac49dfa811469d932f11f067bf35ae2ecac93108a2a8984034c8f9edab1d5c23cadeacbcea94611af1d6fff20ab6d32f68b145d779e41135e9f",
        "l10n\/es_EC.json": "616f996913d04c23573e459db11df15525771befba24c9861b58f74fc802f7519db9c0bc9664593314474b9e23804dcdd58c15ddbb005b5ca796f4317cf32140",
        "l10n\/es_GT.js": "604d26d5c206bac49dfa811469d932f11f067bf35ae2ecac93108a2a8984034c8f9edab1d5c23cadeacbcea94611af1d6fff20ab6d32f68b145d779e41135e9f",
        "l10n\/es_GT.json": "616f996913d04c23573e459db11df15525771befba24c9861b58f74fc802f7519db9c0bc9664593314474b9e23804dcdd58c15ddbb005b5ca796f4317cf32140",
        "l10n\/es_HN.js": "2c59eb14b89fd5b7298908e84c24c1a79a5b97ab61a1e4bb5df7074acaf20164f16546cdc08e295630e49b9715b8fbafd2896c7f279ec5e0d5d7b564f4bc2996",
        "l10n\/es_HN.json": "d97fa521e388299f5aad5276e8a3db04e892e6a052c93bf53f4e87ffba39c3eb86e257e0aba973ecff3f1337e82345b5eb3ab65927d4e5e299160921837e5e9b",
        "l10n\/es_MX.js": "5299e6089fa4b95dfce20504e5a8d9af15375d629734b274d97c7dc9f7d886d0c5a8974e098573e38706ef125260a766009dc14766cb9bc628e02e185ea73c42",
        "l10n\/es_MX.json": "63e85a3f6ddfabda02f54a23c9fa1690b89d0f3fe044377598c80c538860b85bb490d9b900a15f844a46f30ef001fcbbd184500018a6d4d6720e15f81c22b5ae",
        "l10n\/es_NI.js": "2c59eb14b89fd5b7298908e84c24c1a79a5b97ab61a1e4bb5df7074acaf20164f16546cdc08e295630e49b9715b8fbafd2896c7f279ec5e0d5d7b564f4bc2996",
        "l10n\/es_NI.json": "d97fa521e388299f5aad5276e8a3db04e892e6a052c93bf53f4e87ffba39c3eb86e257e0aba973ecff3f1337e82345b5eb3ab65927d4e5e299160921837e5e9b",
        "l10n\/es_PA.js": "2c59eb14b89fd5b7298908e84c24c1a79a5b97ab61a1e4bb5df7074acaf20164f16546cdc08e295630e49b9715b8fbafd2896c7f279ec5e0d5d7b564f4bc2996",
        "l10n\/es_PA.json": "d97fa521e388299f5aad5276e8a3db04e892e6a052c93bf53f4e87ffba39c3eb86e257e0aba973ecff3f1337e82345b5eb3ab65927d4e5e299160921837e5e9b",
        "l10n\/es_PE.js": "2c59eb14b89fd5b7298908e84c24c1a79a5b97ab61a1e4bb5df7074acaf20164f16546cdc08e295630e49b9715b8fbafd2896c7f279ec5e0d5d7b564f4bc2996",
        "l10n\/es_PE.json": "d97fa521e388299f5aad5276e8a3db04e892e6a052c93bf53f4e87ffba39c3eb86e257e0aba973ecff3f1337e82345b5eb3ab65927d4e5e299160921837e5e9b",
        "l10n\/es_PR.js": "2c59eb14b89fd5b7298908e84c24c1a79a5b97ab61a1e4bb5df7074acaf20164f16546cdc08e295630e49b9715b8fbafd2896c7f279ec5e0d5d7b564f4bc2996",
        "l10n\/es_PR.json": "d97fa521e388299f5aad5276e8a3db04e892e6a052c93bf53f4e87ffba39c3eb86e257e0aba973ecff3f1337e82345b5eb3ab65927d4e5e299160921837e5e9b",
        "l10n\/es_PY.js": "2c59eb14b89fd5b7298908e84c24c1a79a5b97ab61a1e4bb5df7074acaf20164f16546cdc08e295630e49b9715b8fbafd2896c7f279ec5e0d5d7b564f4bc2996",
        "l10n\/es_PY.json": "d97fa521e388299f5aad5276e8a3db04e892e6a052c93bf53f4e87ffba39c3eb86e257e0aba973ecff3f1337e82345b5eb3ab65927d4e5e299160921837e5e9b",
        "l10n\/es_SV.js": "604d26d5c206bac49dfa811469d932f11f067bf35ae2ecac93108a2a8984034c8f9edab1d5c23cadeacbcea94611af1d6fff20ab6d32f68b145d779e41135e9f",
        "l10n\/es_SV.json": "616f996913d04c23573e459db11df15525771befba24c9861b58f74fc802f7519db9c0bc9664593314474b9e23804dcdd58c15ddbb005b5ca796f4317cf32140",
        "l10n\/es_UY.js": "2c59eb14b89fd5b7298908e84c24c1a79a5b97ab61a1e4bb5df7074acaf20164f16546cdc08e295630e49b9715b8fbafd2896c7f279ec5e0d5d7b564f4bc2996",
        "l10n\/es_UY.json": "d97fa521e388299f5aad5276e8a3db04e892e6a052c93bf53f4e87ffba39c3eb86e257e0aba973ecff3f1337e82345b5eb3ab65927d4e5e299160921837e5e9b",
        "l10n\/et_EE.js": "0f969c2cc923a571cfe5916a5e70c308970b0ffd353eb514ac46b2d094e8ce42fe04d979318c798474a17c6da2e458afd8bd8e748d438420aec291158080277c",
        "l10n\/et_EE.json": "de6f84e511207145776934a7fbf236e6e9ca5b35e958db56e855e454aabc602a7b9dfea245acb750a09cc52375b713823cb9af594867decb2556bf6312335113",
        "l10n\/eu.js": "bdd03af7413ba30e0ecfd156bfd316d508880388ed7af9b28b063e496b1827048e9d944f3fd8799f182a0472d3cd895c459a98e7b30ad961a9a80f95d93555e2",
        "l10n\/eu.json": "f06e1732f87c5710e81219629c2e1a3467ab5c9e9cf8d25bc3e5ca517783eac79748ac3c96a6d9b6b5d477c1a96e121ee1e6d57564dea13b4d082f5fb46dc994",
        "l10n\/fa.js": "64c180334ca9205284a7fa587f10b4bad40519d8564b7b357fc829407b08a92afbbe0fc5468cbdec8e745fdad8a242ccca2aa5b782c5a29d48f8a10a4ac0fe73",
        "l10n\/fa.json": "6b96b3e14967d5499a7ebe5cac45476a54454443a058bb87784ff03ffe49905a0bd109cf876ad9ab17ad299e7ca78e35e42d41117f60b3c1c72c2ffbef253762",
        "l10n\/fr.js": "c89b4f5215f54358356d41c8d5ab0521a703ebcc93849d965aa7d8ba217a619806451ceaf87accf6faf7f2c2be97b029e957509fb0c04627330524238e91a1b1",
        "l10n\/fr.json": "2b493ea17c9912facbf8a792c2cdfa743cbe96f01770f1eeb7deb075725e8ac976afbaf21334f0d05cd90d964842764de465a55c344a4c0e8e7bc8debe3ca16d",
        "l10n\/fy_NL.js": "2e1675519b2c15d726505516d09fdf613d56907e3bcd3fc31c06dabb13639ab436a0b95879dfa115e53996070264b9b4f2555ff31ba58f89d4082d76a5e5c2b2",
        "l10n\/fy_NL.json": "0229170d1834bb20c391c0a9fd4dfdb43d495f2b9489f5c46ac5a673acc15f474732c222e4e5c79aa6221ab1fcf0ce298ced0b1111cbdc7fc36198dad72ac8c6",
        "l10n\/gl.js": "6e7de3d11cd12a8d7b1f79bf969ee3a7a76fcaf3c02e52f37e57b5d17e3e7003afeca76fff23ba8d8924f0c5129826b5443e7c1b51cf636e8277e014ef2defbe",
        "l10n\/gl.json": "9062ec0bff485094713f9b326889362a290bd87d30ed22e256c4ebf91a9792d03b8aa4fce47df7336f4f625fb602531e1f09654f08a68fd1291e030b429e9aca",
        "l10n\/gu.js": "2e1675519b2c15d726505516d09fdf613d56907e3bcd3fc31c06dabb13639ab436a0b95879dfa115e53996070264b9b4f2555ff31ba58f89d4082d76a5e5c2b2",
        "l10n\/gu.json": "0229170d1834bb20c391c0a9fd4dfdb43d495f2b9489f5c46ac5a673acc15f474732c222e4e5c79aa6221ab1fcf0ce298ced0b1111cbdc7fc36198dad72ac8c6",
        "l10n\/he.js": "96a66b856bd5412d0665c0d999e7c26ead9ea73033300d9073a83d72cd6a2255529621427c82163ad0aa2728cbd302c5efb554304ac60cb58fc65e23e691aabb",
        "l10n\/he.json": "00707ea1c0055b6e672c0c046e6be506f4afbc7728caadf04e15a713790284f2fb69cccccae3db0ca51af3fa3adcc220351cdae0ffa12679f2474d38ffc45a2e",
        "l10n\/hr.js": "b6695f489af1ffc31a02a16ce9cbd9851bd9c048891a74fd4fe64afe51e0bb5d7cb31120582b40baebfed541f569c752cc6e4babe2fec6bd54ea986e05f8f517",
        "l10n\/hr.json": "dee9e9816672cb69de126817da0ee8df8f8fbeb73823c2a68c90214f75318eafbe1acd2a47e40275fb1c6b4ae981878962b90edbe8117c3c16a385e97ab5991f",
        "l10n\/hu.js": "cdee229cff850264c7082c0198695b3d68ccf4f08aa0d91f412b860c0801faaf1ebbbfae45d910203f3e3c750b502234bfdac7b69f4a19714ccb78f1ff8f8dbe",
        "l10n\/hu.json": "360793c547d4545243e82be0a61c328f1b2ff4485a64b0becfc115c2e015047c26325a4e50bd37962be96731e6f8f8618bf78e8a9355294d367b863de907b86a",
        "l10n\/hy.js": "28be9adaa7b7dd2164c563f9aab7b744a3ad6b57f05837ed8f847e8e9d7f9181fd0d06461a9cc6a26877bb605e5241041475ecd733082d775dfe45aa385ed29b",
        "l10n\/hy.json": "804c07cc49b22c1deb07890fd2036b371edbe4a0751849f185c3fde9cf01c6ec8998e7ee3d9ea7ce0892621d0161bbcd5aae85b5e287ac26145858c58e0c468a",
        "l10n\/ia.js": "488245a1d513c7f2bc563d5c67b0db4f5ab7ba88cb67964fb513648c2e100a2581f95ae4c9eb2bd143d470d65c962eb15e0a3775dfe212edf258aaa49efacd37",
        "l10n\/ia.json": "618133a3b6d8df8e9993eae72ff07405b1639f25754708958fb43ddd9a36a4c0868fdc539b3e2c41b2b9fac5cf187279a9e6d21fe7461ed1f39f7b21a98d89c0",
        "l10n\/id.js": "a63aa09cfcfded81859c79433201a9cdf7bfda561cf5132705831b36eca0f1a161f5830a1148a5c74c423d97115a3ffd6fc3e7508a9ee378aec4cca54231c80f",
        "l10n\/id.json": "fd411452da45d08accc1e80d5fe358ccc238ed90213cbbee77098fcb3c94cf2ce2352b95257091644558ceaeebee4c95aeda0f381476436f7c8e4d358ad517fe",
        "l10n\/io.js": "2e1675519b2c15d726505516d09fdf613d56907e3bcd3fc31c06dabb13639ab436a0b95879dfa115e53996070264b9b4f2555ff31ba58f89d4082d76a5e5c2b2",
        "l10n\/io.json": "0229170d1834bb20c391c0a9fd4dfdb43d495f2b9489f5c46ac5a673acc15f474732c222e4e5c79aa6221ab1fcf0ce298ced0b1111cbdc7fc36198dad72ac8c6",
        "l10n\/is.js": "e1f4e1f29a98f3b980ff214f335c0da75fe156a4671e7d8cf514aa60ac30da3aa2fca233ab319a15bdb0e3e2ffcf11f235990b41a9306ca498d5e2bad0a62e14",
        "l10n\/is.json": "6a07c2e1ccd07a22f06582853e1612313beaa7f9e364d8d54af6ac3bbc955e960b9469227f00e8d823deea148d5a500a93f7e90a7bd3ef6d5bf4f50e72991285",
        "l10n\/it.js": "68924a20aa5ce039b664f7e1c70bbbe14a67ef8149130f98cfec3f252547b336057495493348dc922ba6c59d72a36d4b1296e5dafc37837f6fd21fb41e5e59b3",
        "l10n\/it.json": "bc517bff5e4a093cf9ee9954ece88108d537995d5b7b0caed57de163174a66e449f659bb68ff48d3b55bec221b6a31d6e1efffed976e617070833e82914606a2",
        "l10n\/ja.js": "dba68f2f85c6b8e28b87285c0859cf4554cd33bc035405f28f0c804b340198394c185601ed50ced486b7d1a7c5690f4d21b3913a7837128060e66a0ccfce3c67",
        "l10n\/ja.json": "96187fcf086b1cd2e169a0fdba91f581f80447f7180bee65d01f3b4a6da3158507a1aab7922e70a93e7f8e93ffd857a2fe5ba4a711285fc5a6dc943fe3e6f1c9",
        "l10n\/ka_GE.js": "c738b0a9c85fcedca14b450d33806d29f7e11f5f952ff64a77930307a4b60671592de1c7b74cfe7317559aa558635e5af8cd7cd02533f77cd351d3308d39b562",
        "l10n\/ka_GE.json": "c9babbd22037dec0f4234847899b98da6b8c801ddfb2cdb2da90d88d251f70bbeed9b168253186bf7bdcadf6dd41d736d4415953b6fab44837522a7609a4f332",
        "l10n\/km.js": "557c1bf0bd7219d7de10270639e674884d1ad088ddbf1d69a149e983b31588285dfac7ef1bbcc345d0093a01b1fedd2bae61bd99a2a407060f6d2b718adca2c2",
        "l10n\/km.json": "0c4181d193c2900bc6cd2c11ac8b3550fafea4b9d9771bcead54cc31fb7e9686e890ad6c1cb9013f3b46a273669b5fb79b66472a89735efbb6599ff48c347e09",
        "l10n\/kn.js": "8ea32b354ad6fafa8163c4e0fd71535d00da8f5e1a9e043c7a1aac4694581a4013b75e6e6aec3c68f365073f82096ba2e1690c342647dfaca56de30d1e515074",
        "l10n\/kn.json": "095e1dc0efd11fc03456fcbdcddb933ab2d35a34f6e80b6398106b68ca46545c23fda045c7c70a1ef5882b48f17fae5936253ae81fdb39af89e7c2035a985700",
        "l10n\/ko.js": "18cb3f171290dc49269bb2d41b9d533a2e861c438ff7e48533ebe9f3767c8ededa0773a535227767ee60e43909afdc70bcd301e70b4f621d24c0ce4ec8bc236c",
        "l10n\/ko.json": "4c2c5722da17e8e9316f18ff9def71ebf20127dca319ddd8bcc038b1bf2b9e1a4fdac2c3d455e4d35ffd627de8b6b39cf347203a853c4d736ee21dff050fd71a",
        "l10n\/lb.js": "75cf77133674b06ade17f149ec45e56d8a8545df01d4a796a0b34a8f2d0302c97437d4e5bcb4b70626aa520cad2a11cc25c37848da80bef9d64489c236952c08",
        "l10n\/lb.json": "1a907088abe0a783f2eb4dfafbf6ea0ef51ae606fe2fde9cbfa52b409db859fbddb35d45afeaf16260367dd59978fee5ba76c76bd463b5a3f535131fbb161dd3",
        "l10n\/lo.js": "71e16eb185207be77e8efa486734ae0f4c5e639cdbdd799d9a0f1c59e966d0c0877c10f872a99a4d0489a2b32ffc76efdd09629f6b587f57e5d18582392b956f",
        "l10n\/lo.json": "8feb98b74cc4e22fc60b147fbfe34148b407e37ea50e74cc8b205226a3db47d592ffb1125eced07fbebe9078f961f85df3ff6c33744082a7cc9a59db9ad9269b",
        "l10n\/lt_LT.js": "967226242f64a8a9a4cf0f844d15642c1a782ab81aafc9b00086cb337811bc98eccbdb8905656fdd3f0ac5177e6cdbb7e424568db4af9e1165db0bd4c44e7702",
        "l10n\/lt_LT.json": "714c386ed9e47755e07d6e2ead5b667a4f7146df94b24454df85005629c6bb19b9225d547617fb52d5454cb835b324936def1c5c72b74cc956f639933ebcfb1b",
        "l10n\/lv.js": "68672a6e84f4071dceaf51acfbf6c2e99fa60349355bfbeb713807233ab00008624adcd1e9e2700b36c4f799dbcc179a53e3e6ee886b3a44ef2c00386764f70e",
        "l10n\/lv.json": "4c3cb999dac7fb84c7f1e9b1ba55a56dfdf5979c95582c318f22ad70f104cea0ca6592c74e3c328fcc614650444f1f707ae52796933890ff8c3573342c98bb30",
        "l10n\/mg.js": "584616c60777f992280413b3849fd779c5f8e1b4da2f4cbd3864dc35842550e01076fad35a6f95ebed4f32436db05e70f613e95e676a83add0e36232b922a0f8",
        "l10n\/mg.json": "f3711573f0f71802cb423dd9c506c602996a7fbaab151df96a39f5049ef4f15617fc771d71766cca8f22e50ce5c5319f4438add093fdd0a1b73c5344d8c34348",
        "l10n\/mk.js": "e1de68cd6ab6ee18ca877c29472b3d51670e5d531a92f8c6c1f6b586a4dd7b275a609edf766a8bdf1ea1ba26f15d26b29e3e6c7fd701a6c04b43fbdf4ff0de07",
        "l10n\/mk.json": "c6142a36b4d70caf5775a80e9bb11b9f2f8afe6d71879f96fea1712e80e6cfc9c2df993b2a1c6a0f00971e8b022e4157335ad5d298d0d0b09a4dc9e5d114a069",
        "l10n\/ml.js": "2e1675519b2c15d726505516d09fdf613d56907e3bcd3fc31c06dabb13639ab436a0b95879dfa115e53996070264b9b4f2555ff31ba58f89d4082d76a5e5c2b2",
        "l10n\/ml.json": "0229170d1834bb20c391c0a9fd4dfdb43d495f2b9489f5c46ac5a673acc15f474732c222e4e5c79aa6221ab1fcf0ce298ced0b1111cbdc7fc36198dad72ac8c6",
        "l10n\/mn.js": "0e2c26e565a2ae53ede2163b5bbc8972a5f1064f98d17acab0fa68238289c342026166679a2a1019b643006f2c8daae22a4f27ffed82dfd74bcd65a54fcf4e55",
        "l10n\/mn.json": "180297b8d0dfb8cabbaf576adfe452df26fee9fca88f33f63a1af964cee633ab6170ef33346f91991b42930603a44b3b6a75bf611c0d0a44c6948ad77409a60c",
        "l10n\/mr.js": "2e1675519b2c15d726505516d09fdf613d56907e3bcd3fc31c06dabb13639ab436a0b95879dfa115e53996070264b9b4f2555ff31ba58f89d4082d76a5e5c2b2",
        "l10n\/mr.json": "0229170d1834bb20c391c0a9fd4dfdb43d495f2b9489f5c46ac5a673acc15f474732c222e4e5c79aa6221ab1fcf0ce298ced0b1111cbdc7fc36198dad72ac8c6",
        "l10n\/ms_MY.js": "7733fc4a26e810877d77382d7ebeae209c8f1aa5f72f5528345f9daee2b7cbfa7f2e930a5a5f5a1ee8bf024fe3ce2556313cfd53a2788ae5553a4ae9ae51288f",
        "l10n\/ms_MY.json": "3496e34b48fb8957469211e293f49cccf6301fd77206b8febf0873e009d1bd32ff512fc10d9ccaf8e16691965226788be7e1f1726e33f84cde735431332bf5e7",
        "l10n\/mt_MT.js": "9e61dfcffa861ae96f054fe045d24544ad45ead40a56e25510d1442c254b89558b27f687f1c1dcd47e6e5e246446c8cc18b2e95401a4641f5e1a566c438ab7db",
        "l10n\/mt_MT.json": "416cc992378a978622e5be64c58e6574a0afd3b667f43b878511070f0d30e99c98796438a51b2262ff3d711d6c058f16f917e43e5629d9f825807abb04896109",
        "l10n\/nb.js": "cd96a84309625dcb86de7ec7c9e394702c24da1867a4cea014221cd49995aa85b2fd2a3da24ca5f7029409f46724f35c383c6a27cfcadbb34bde045e6b420c66",
        "l10n\/nb.json": "fb227ceafa0bb43f3e4dea5eda1dda4b28195be4bd7cf18c6ffc12f7b178ef1e53116c8e570afe094bdbbf0ec98189e8be4882061932415de7c3ff7796950e3c",
        "l10n\/nl.js": "0fd01657ec55e3b1427e4c6b0c7ec4e66b088c9032f08719dbfb63a14c99bd2ef16cab61c1a3f65d1a50db8d4cc3f6a0d097c27553fcac8734c30255c5a93447",
        "l10n\/nl.json": "7ed2752fdea071cb9a12d7d35a6396c8f8565d7c096b77f0ab18ad8ce008ce8947cdf70bc66de006e4715f5a9ae9420996be3815f55db54df9851251ec172ecc",
        "l10n\/nn_NO.js": "e6b991393137b4009cee5b5c6d4f98d992a1d1b3ba0293fe2ebaedc1f5c0bcf0f81bee58414926968931f1fd1180afb4166c32c8a389ddc217801f3223270db3",
        "l10n\/nn_NO.json": "d4d39a7c9fde982c00d82b19380a88d27ddc556e812a2f1cc2b79272d0015d0a00e0fddce7acc875ef395ab1ca7a6b30d041d517e5ef96d05bf4de687b232697",
        "l10n\/nqo.js": "71e16eb185207be77e8efa486734ae0f4c5e639cdbdd799d9a0f1c59e966d0c0877c10f872a99a4d0489a2b32ffc76efdd09629f6b587f57e5d18582392b956f",
        "l10n\/nqo.json": "8feb98b74cc4e22fc60b147fbfe34148b407e37ea50e74cc8b205226a3db47d592ffb1125eced07fbebe9078f961f85df3ff6c33744082a7cc9a59db9ad9269b",
        "l10n\/oc.js": "b5fb2a9e49b2eba4db7004143f53eb07dabb551aa7ba540bcf842825903a968945cba7140a643b76b6156c4e9a2055c995675e3103a0d7995b7a79f0ac6884ec",
        "l10n\/oc.json": "c1ca15652799fa8c90aedd61811283edc658967141a342551d7851e184ba1d879bd400b9b7c2ee5ad9e24d1ddc5982bb20e4eec8d9365b1814f86cb9aa3911a3",
        "l10n\/pl.js": "46f1fb03e06f5b7374306adfdb400d1880b0a9302b202321b46c2a346d6b0932c0568df3484d7618262fd927f0a36b4c14fd5aa914a5e0efc34006471deb65e1",
        "l10n\/pl.json": "ec9e92c849d09682d42816eaed6abba2ee8723c9d1e74b7d3f152a1b35c45abf06cca344dcb923bd98200e1b83d8f333cb2d3cafde3f783da2571710e4c041af",
        "l10n\/pt_BR.js": "71adb24b40bc230b2e194ac14d209b39c13050b0c530bec68c9ec45acb068a8f5bc5509b71e6db30c7b5fde0582fc07a57468f1bc101b57b2f0fb80a62c3f556",
        "l10n\/pt_BR.json": "0e357061d10f94bbd02cdf5d755b1bc18a2c36db78e6292e22cb947464f80151ba36aa4a849c482c911f9cb5b661d25b827996b28770cf52825e969b2d7ed8d5",
        "l10n\/pt_PT.js": "02e4228e0f6f6d2c9546197d9158a82a5ab66beb6b67842a12cf83e2bf2fe5afad6999db828c477fb5be2d049116365e13fea2609abbf470e7b105c1ee4709ae",
        "l10n\/pt_PT.json": "0a096f3d4732052516c8962474d8d7c1d1ac0e25b93fced2281434d0ec618bb9a8a375e0e7dfaa2983709bb6d822e158c3917221fd377e69a81a0da955162dad",
        "l10n\/ro.js": "e6b31a24956f789683ba62901e4d01aca977eb53ea0dff0fd8c3f2af1ae976d3098386c98b3dd452f44ce3f481d537968f5dc49a53cd385b1eefb96ac5193e0e",
        "l10n\/ro.json": "815dcec36d6eec5e08b39a30c82d8638aa486ae75d056b185f62c7e8c776225ff0face03fe25d5999588afe4f461b1496d6c51b8e5c77948323db1e27171f56d",
        "l10n\/ru.js": "7da181b2ee0aa4286276bf649d2b73061f0e60a8023e2fb609b008a190fdb6bf5657712182f883ff818ab95a81fe535cf07030f85bba0ce82d0fcf90675df15a",
        "l10n\/ru.json": "5a4737a3dcaabdfef2c6b873bb4c4b0d2ce1db64a4566c8f489d712d490147d3dc9ab776c3f63d1c86e19967564e1ed69d3714b7744c1cdaf4c1e99cd29b46b4",
        "l10n\/sc.js": "2cee374822552fdbff91bd2715fd712532457da6dfb72e9e4f276133ef7cfca98deb2a0c19334835a52a47c3810e309bf55b9f6da5b39860dfe34185e965a415",
        "l10n\/sc.json": "6f57162f33c62001e58f27cb8cadfd1eb346da2729a6cfe1defa86ddef7b0ca347fee71f7b042a2386824cf33f518a01608bdb7c1e7ac5789ee5f4a958758b61",
        "l10n\/sk.js": "8fbb94da5a23fe1d3559e27ba5accf25f6c2b188345bc4328a11cfa24071fb24aec9f0c1f340d6df93c89b6712ca60e1f21e79d61280b6f3bef109937a81dd41",
        "l10n\/sk.json": "ec583621518b7fdd624615998cb0d3272850dbb2db5eb9311a29bed4e070d34689bf584e14e5626844186f4a01626ff72d29c7d1f0e0a9e7cf0c3068d504d100",
        "l10n\/sl.js": "076cfd129d029a516ca7b2c7231b7856b0f336306a131910960fa7129682d0018bbc7af2948a373a036bcf0e136ca5b1d423ade73f1fcdc19a5a8727d0214fa9",
        "l10n\/sl.json": "b8a49fe5e0f2cf54d1f1fb954376ac09c5ca8d1aef5e03325fa69f6feff5bdbbf54836f13a023f9d1e213b5e374ac158008c797c389d72572cab83a25ad30f94",
        "l10n\/sq.js": "46feebd8299ad4256a9dcae829968b786d960f24ad8a21835b9232676060747d9038967c970936e28340e28b0eeef90793faaaf51eec0d4eefb878dadbeddf72",
        "l10n\/sq.json": "b1e0019fb55e0b45f55ab5097d91b855a02ecff7316943df2a1693fd7dfd3c1543927a074722b03fb5d03dc13c1e4cc91fe58a26f3b73b946bd6a2bfe384a351",
        "l10n\/sr.js": "a04850ceba9d64529cc2b84f4e1f68071ff428d1f2844a5c88624d3cfa916d8e55842b1b07d8f02fc1d6c7beee97fa3a03a5640c3d5bea89084f67f82e060ba2",
        "l10n\/sr.json": "cc6106e72daf5249400e30ee93117cf2c81089916a88232760a1698712a2e0c6e7bc4fd5a54ac6f8e22ff0ec963caeeecc3445283e1f22c33d07c88c01e5e230",
        "l10n\/sr@latin.js": "27c449e60967619e4b4000565c772f1dc268f1dc29349df639894b2f8567b1a17451e1c25785d2a727744418775bff0cda80f8639e418c4000fa5530adbe7601",
        "l10n\/sr@latin.json": "052896ae8c2ae93b2a5212386172bcf3d20d0e20febb00d26abd519390858788c83599eabe5730075b8056588cffb2868fd4ab15b86e523faf048d2e1b484a38",
        "l10n\/su.js": "71e16eb185207be77e8efa486734ae0f4c5e639cdbdd799d9a0f1c59e966d0c0877c10f872a99a4d0489a2b32ffc76efdd09629f6b587f57e5d18582392b956f",
        "l10n\/su.json": "8feb98b74cc4e22fc60b147fbfe34148b407e37ea50e74cc8b205226a3db47d592ffb1125eced07fbebe9078f961f85df3ff6c33744082a7cc9a59db9ad9269b",
        "l10n\/sv.js": "6c0a6339fc6d1a7ca895a05e2858aefc2eb0c93e6109ca8ab50f1cd316cd494c4c1e541002fcac9a99f647e489b347d16bf0f06c11faacaa745475dbccb510c8",
        "l10n\/sv.json": "7fa195b6646fb4ce8046959ba36b7c150d8ea7aa92cbd239e8e7642ae89e124db85ba66a567cac60388f7d477aa78483c845ebc4d530f9792a22156aca067e3d",
        "l10n\/sw_KE.js": "2e1675519b2c15d726505516d09fdf613d56907e3bcd3fc31c06dabb13639ab436a0b95879dfa115e53996070264b9b4f2555ff31ba58f89d4082d76a5e5c2b2",
        "l10n\/sw_KE.json": "0229170d1834bb20c391c0a9fd4dfdb43d495f2b9489f5c46ac5a673acc15f474732c222e4e5c79aa6221ab1fcf0ce298ced0b1111cbdc7fc36198dad72ac8c6",
        "l10n\/tg_TJ.js": "2e1675519b2c15d726505516d09fdf613d56907e3bcd3fc31c06dabb13639ab436a0b95879dfa115e53996070264b9b4f2555ff31ba58f89d4082d76a5e5c2b2",
        "l10n\/tg_TJ.json": "0229170d1834bb20c391c0a9fd4dfdb43d495f2b9489f5c46ac5a673acc15f474732c222e4e5c79aa6221ab1fcf0ce298ced0b1111cbdc7fc36198dad72ac8c6",
        "l10n\/th.js": "a02371f0a7cce0929c4b972b96c9b2d3f7d1e7cb11a9818cf5cbabd0e827b749a61bc4a08a97b4b2270b24de5eb8a93748323ef3ff35a32388345d9ee7245075",
        "l10n\/th.json": "b10a97176bef8a160c5f563cbb83373daf130a744b175696675fd96f588011813b215b362fd00e7829aafbaf434d0d07e28aa4ff80870a3bed008d22f16cbe49",
        "l10n\/tl_PH.js": "584616c60777f992280413b3849fd779c5f8e1b4da2f4cbd3864dc35842550e01076fad35a6f95ebed4f32436db05e70f613e95e676a83add0e36232b922a0f8",
        "l10n\/tl_PH.json": "f3711573f0f71802cb423dd9c506c602996a7fbaab151df96a39f5049ef4f15617fc771d71766cca8f22e50ce5c5319f4438add093fdd0a1b73c5344d8c34348",
        "l10n\/tr.js": "cf2fe5d5b9afdcc36b7d46784845f6f88631210afddbede5bef5473b5fd429a165419e84d35e8ced56d963c891c460fc2ac0754126233d4a73120e73b9883912",
        "l10n\/tr.json": "cdead28b592b49b2fe3cdda10734fb96cc1b972a5d90c2a4b595af05a7b3d83d8a9b30221133c535293bbb947fc53d9ec3a36d2e376af1380ee21eeb9ee466b8",
        "l10n\/tzm.js": "64a3c0d91672049283317be11a85e316b547ca3aaab9849b21f7a09b22d1b0a24b58e522f9b5269e08c1a9e54305c381a4f0ce6a03f0c1aa1706a91c5cb4e11c",
        "l10n\/tzm.json": "13ac19c58150750ea44bb764fa75811ebe09f8f98eed65e181928b1944c6c19d3763b05bfd86ab9a31198c0ec58b2d3ef3603bbb3a77ad6be8cf2af356dcd65f",
        "l10n\/ug.js": "d3129bb0be6982e1607a37482e595a3fc759b4847bbd804b787124b3822bde529fdb2ccbbda3d128f86242f1af820558c524185e6789ce69f8c24d94078ef961",
        "l10n\/ug.json": "971bc6057a1c2f68d462c53741254a96afba92cc44bd53bc02500867f94a39d6d08484ef7b3d87be136b4e2534d0eb6139427edc0aedfe05dcff44cb75e0b36b",
        "l10n\/uk.js": "15953c038e0d921ed4d6b9c533acefea6a458a1c5027664172b30d7044176b6e4bc38859ae7a5202db4954226462ba54c16c9f1e450b96e4e82bb19b11cac63d",
        "l10n\/uk.json": "d71a27f2531806f9afabbab4c83d6ccfd3bab43168ed9a627c54501e43091ec67aec4b58719b8b7c10471362115842c08eb4885fdaece21488d8ea8976a0f08a",
        "l10n\/ur_PK.js": "4af2df9528ea686197aacafd2dfd8a4d2ad579491418e564ce57a07132c620247e5d3b7026872acd5636a964b24d26e6310f80fcbf09aeb8705e3f7b00f21928",
        "l10n\/ur_PK.json": "e7bc6b8ec19eb4eb552ba21f0895846e3856e0c390e6326b1b7dd82ae6ce6f19cced8af35ecb4047ae9d65a57808a72e3d6e5680e2e7a0dac5cd20f6a668423a",
        "l10n\/vi.js": "d41c49aa9f19b432c0999ebadffa6add819b0e26de358de4d0651c5fa783155004d9e37c618b7716d5dc40ccf72afa02a856bbfc5ac277aab25d94fd74efcf14",
        "l10n\/vi.json": "ce4b9bf4224b880a771c85449a9e72533b7013d2c7af750af5acc28da77e6bbfabec1216f96206f168d109b0a485dd70a2b97d663de44dbb49a29726c3793849",
        "l10n\/zh_CN.js": "b9663d9e24b4edc516c30a833b4634e228288ec26e0417616bb712ef28e72d01bb7c15f4060826b809a1f841143518204d191057c86514f6565c07f6bdd9b035",
        "l10n\/zh_CN.json": "600e623b41fefb31f90ce975478bc66e2d33ef172a664817457e46afe55413f72c4942ea4458fb12f6333f36e06fc14928123274d59da95f6f9369ea88b35f16",
        "l10n\/zh_HK.js": "76f8cddfdbe2a6cabfc6f173e83ea7de96b719a8ace93b39d2ac903149a39a065bcb96b7cf5e5d681a00b7115a8f18aa100ee9a2e8a24653b71fc57460a630f5",
        "l10n\/zh_HK.json": "c0214b8bd42e08eeef09c7dff9ceba1ee95523d47d99b685c20b6987cf697c4414a3f483ce097780124c532c0714ff0d4b047f4abee8a9ad8689089092b75a4e",
        "l10n\/zh_TW.js": "4964af1f1d17af8e74fc467d7ceeaba3877528127dc28af980aa995148b68015148aab99ff5c25fcd99f61ee6d3095ed7a6dc3d2fe7d3ab5d665decac9fbfc50",
        "l10n\/zh_TW.json": "03c1194ca1cd63784f01f10117aba3d65c244cc27f906bf3e17c62f9b0fbf5b715d41dbe13ad68e5c4821a66b6fe2bd820992a63cef98615d8d60e4aacbe4c09",
        "lib\/Access.php": "93a544f4d600bc3dbbc44c9669e5ded2f7f0a7bf8475cb91ecc33bac07193ccfdb470ce64dd0e3a591e789494846af10360e0533eb147ed803d5c481f2791278",
        "lib\/AccessFactory.php": "e6ba1ab606eabbf408058f9ca4ce008f7d671fc22d9665113188f113d9fae268ef1a967b049790d871bab52564cc3dfd6609115a7b7e0351b22822007b7674d2",
        "lib\/AppInfo\/Application.php": "a840937b2a79f56d58ad74caa1762222ffff70506311bb85e3f0bed803a328770c1a03606c9de542abbdbf5326929bafd99f559b4b545ebc46acc34225a5dacd",
        "lib\/BackendUtility.php": "2320ea000c3f80f545ab5d6d22389f1b55d6f6a670a533d2f305f4139f3fa9329e46bfe0f89ac83867c397940847e2c095e29f0d6c1b498643b4cef08420ffc0",
        "lib\/Command\/CheckUser.php": "8ea540d19f6914cb33f298fa4da94f36f038a9b63cf64f1cdcb4c42840ce36f9fcf2d5e73084f981d83d69aa79b5a3c1cdafc327955f8c9818467d38bcc57629",
        "lib\/Command\/CreateEmptyConfig.php": "734e02e565e53da11a51158256daa218683a9010b3c888bf02ee0b482f131e1dd27fa1192be45e98307d66bbce79e79483bd31ace8cb537460c0c077c814bea0",
        "lib\/Command\/DeleteConfig.php": "2e7874e0e3d5cfb25c3d2da12142ab48d258b58d1fc42a43021ee260744ed85fcfa9c09a195b59ae69d592be8d87e98b71d9c420426f82a5ff90f57e28449f40",
        "lib\/Command\/ResetGroup.php": "1d55be08d97176f3ee7d417943061afa6d8117e69ecd1becfaf822f1b2a94e21b42383ad9a75061c0e0232bb42c27546e35df1ab0cdae67eb99132178f9bf55d",
        "lib\/Command\/ResetUser.php": "3c36cb51f76890fecc5a033d46b4864119b4628bcb3447e742b1693382c989cf6deb7eb94fde7459789390ce4c235b3fadcdd1c34d57abf699e51f80177d1273",
        "lib\/Command\/Search.php": "aa223fb79731161baa7eaa164dace6773ac3e05f4661c784d33adbdbb139231ef7d4429e6b77d6c4f415cfeeb981f31f8237c58dc6e53e16d8c18fc0bea49698",
        "lib\/Command\/SetConfig.php": "e8913f4816c0b7f32b8f0be960652feacec876afc787b26c155bbe803a93158f307eba21f7c1499f8c62f8a6a04a8d48100feb9d9d422991e4dad4ba24d00eea",
        "lib\/Command\/ShowConfig.php": "b2d9040c895ec98842f6696d65b3cb15b48a0a83d1f485fd1039398a89c0ad50981b7cfba1e0f40710f06f166fb19f36323637eae3b6ff7c2bac21d1b6936303",
        "lib\/Command\/ShowRemnants.php": "6f7098e4abaf541f35d10d9eff1b204534117ef7ea39db002f1f65767110c6b3c60e6274598be2fa7b328217a45efe32972b40260be69775257ffd652d5c96ca",
        "lib\/Command\/TestConfig.php": "b057d9341c7478a3941757aa98d5c3888766f0ced4ba37434cafbbc0cf2d9df2bcab315c2319b5670ff563ee468be0cf1e6903cd41f3cd79446c49e1ced6798c",
        "lib\/Command\/UpdateUUID.php": "9e98aed2a2417beba667e23b012f7f9dff3bd03afa42ef2078d76a3d930cdb372b896b6bc0eb2411f99bacad81b00fdbb4030308cc53efad921da8c32cd2d634",
        "lib\/Configuration.php": "bac14395fc0f8b8ff52bd70e167d0ce63a47cc20009fcba9062d1772811494a2b14e17b3c604440569c392f084aebde4b5e13aa1631efe63a08a27c4dc4de30e",
        "lib\/Connection.php": "5af4c9557330beecaa6a7d08c79176687ba8cf1554424ae54d8a7f63149b4f5314c42f2681fa07fe8fe0c8726b5164251039e45a1f8a0ca62af21c288b81850f",
        "lib\/ConnectionFactory.php": "58b51de7aca4a5125c334da7449171b0921552f84c82040b120a9b47814b84a774a0e3a23390930918598063e7d3dd5458534487e06b05f6b3d6bd6f41f5cda2",
        "lib\/Controller\/ConfigAPIController.php": "f686cde21b307d9e1b2c5a30973b6911e0f2ab85b902cfdfc38960c341326660c4b32453ca79e2158150edc7110f66bd7fd005f3355ea320e09a9bb1e56f29c8",
        "lib\/Controller\/RenewPasswordController.php": "7b6bb432d7636b273149e2786e83827efced1adccec2717ffd81586318ce23472241d1271a053917ade31ac9c353db91646837e80e2f90f517496ac85472d5aa",
        "lib\/DataCollector\/LdapDataCollector.php": "ecb5265cb2557e62966730328099e28244328f4f150319a794057cddc644b17e6d4953d53d7abe61d82ad68750851be7e47316baaf5ea621c07a9b6c990247bd",
        "lib\/Events\/GroupBackendRegistered.php": "701aae4a742bc873664726631899be45bdc35ccbc9440619c76f02af868ba2f77a3546305067f4c65c8536f2621dda364a3b61d96713a7af973361653490ee22",
        "lib\/Events\/UserBackendRegistered.php": "fa99b705e1dc6370c450c40021f770f9051ca5034337afb4af6a2908e8768a63ba5086d16d77dc6dd88f60a949cd39ee9450df93650d477cc4c0e69d2839ed80",
        "lib\/Exceptions\/AttributeNotSet.php": "b979519230ea007c7f5c94b2ab34f9df7e16b029e7785220e017bfcfc39801066c04fd5f88ac96f96fdcd46e0a77c57312c99214f4ec952d289c706b827695b6",
        "lib\/Exceptions\/ConstraintViolationException.php": "54e321fa05995373025a7654b02903e22ec139f6061bafd914e969e943574a079cd0e98ad3dc71ab67c3c37bddab34d6d8c891b285140ec27c5f30da06488e2d",
        "lib\/Exceptions\/NoMoreResults.php": "b2ce7e3910090e49e98227ff203fbcb28ad227ca63cacb256e6c8af2edb80a961e29d8cb09060f9ae44b47859ec9ba6f8009013635d2a66cddda9ae2b43575e0",
        "lib\/Exceptions\/NotOnLDAP.php": "81ef23ceb00d24b397e87aa2e7844cad1161274bdab084a0b53e699d5678066fbbfb39ceff8d0330bde91c8ee8510429cfe792e6b90eabde262d05d35608694e",
        "lib\/FilesystemHelper.php": "b9523a589c5eaaf319130df25605b3bcd23fc04642be21698cdada3c99e65ccdff65ef9aba843ccc39974c65f4fecf443587379282d819fa497e3a3bd6fb4c83",
        "lib\/GroupPluginManager.php": "776cb470bbe70019b3510b7a5cddf5189ce7a21e6a31036ba70959533cc47dd5a19561bf474e1a81e5b75efe29ae6b7c184544539eae1028a3d3c21402bd4607",
        "lib\/Group_LDAP.php": "9e1ad6fdadaa9133ba6a57e4b3ff3ded4b221842c183d2c213ae02e6192441d4e9861d2757a70dc50668f03675eb25e2f91b1dc15a410b9cf3123a929e43020f",
        "lib\/Group_Proxy.php": "e417b0e61a300d92c3bd2ffc8e71913fc08411b6435f5bf51a9eaa62223a5a6683e7f4df7d29edf5a893f54e8d26a35819daa6035d7b7f49ac861b4b120b9a06",
        "lib\/Handler\/ExtStorageConfigHandler.php": "cf1a9730558a077c454c24e194396b408a97a92676f4398b002ba7a67e95934749cd70723c3328b15d48ba6e0ec095ca29ae3104f27f353b6102f99ddabfbbb5",
        "lib\/Helper.php": "ba1c12e7fae74c862b612e723417fd588038f7f6d1b398047f8603e29a5701459b68ce56b4745998c0f00b47d7dbc3d7bcb5efbf75244e990c6d21dd445e7de8",
        "lib\/IGroupLDAP.php": "f1bd949e11da7eefae58437a7114d24662735ddf7fcc2a1b0ec149f0f6435e6fa0cb729e82a4bfd64b7d9315a50eeba141bde98c393fdc8d427d848c49a56874",
        "lib\/ILDAPGroupPlugin.php": "50ad6b05ff9089e55941863172f6cb4899d8eb820ecc004e9095916978b3ff2a18025f98be1b90c3c65988751d7183a4e85c9184d12156601d93dee482628b11",
        "lib\/ILDAPUserPlugin.php": "9b587a8d63ce1135f4c768f05e06c18df2984bfeb8fc5103e6bb956d23489b599e04cab514b85c1ed43b9bcb04c31d5ba2b279c3da398af9b8858261de7729d4",
        "lib\/ILDAPWrapper.php": "06bda50f80a2a7d6f8fd49aa4330c507e340f25e54c462182f120dc14463fd450e2c4dad7ea81c511b320a4246a35e994cbbc670d6ca3877bf3095d8fac0fcda",
        "lib\/IUserLDAP.php": "3bce8559b34b27cbe510a5703d7bdd091bd5adf36a11e753918b9dd017712f6a441d1737b64a92dd5c453248ef90506c457f384522d72abcacb8bc52466cc2fb",
        "lib\/Jobs\/CleanUp.php": "d8e7add0383567a594bae9d284c546ce73a6239f6832ccd58ee363f4badc09e3de6f89fb4af695d7d0f11aa69ff237f256551cf1534a50d292a0670035204fe8",
        "lib\/Jobs\/Sync.php": "05350fb7d771b77f5430f6082ff19c20947a9ce27d38b5bdb5d9468eaf76705ebf30ffecb0e96249392d69aef5c81c0b9ba8cca2aa21ad43a737f43b1cb2a6b7",
        "lib\/Jobs\/UpdateGroups.php": "3d4c7444740e5a546a0a1ae41a2d1c7e5c889cc1c9fd1255ec928cfbda31731899f1bd84e1e6f40eff2208f22fc7ca46093d458950d0af796cea418771819f05",
        "lib\/LDAP.php": "15367d16fee2ef1679444dd1f92c1e34a6ad6a87ea69ab07f3778c9fb210e00118ee6456c55b1a902f9ca26e21e1c76c9c799ea906af2ea29b9263b50e5a7eb7",
        "lib\/LDAPProvider.php": "de25c7640bbf09e8f668c148d9eef5777055745c0dbd9373969f626ed3cbe19d20c53cbe096095c2dfceaba1507c360c88ccb4c44d1437d1fdb2c34535cfd2cb",
        "lib\/LDAPProviderFactory.php": "0fcf4b05961093b7a4dd3d76ad6022aa9365d6d1aa8b35b84f2015ce6bf603d146dde0d4d7402bbdaecbe747b02eaeea0cf718b32b421696f05e3b06ec3aad18",
        "lib\/LDAPUtility.php": "5f55a769da462a473020018522dc8f89fdd4ccd8e7cb703e91743051116513ac8567f01985a6bf64e3ba22cd1628f35740cfc20011cc617984b83da6f664f00f",
        "lib\/Mapping\/AbstractMapping.php": "3c49d57c9b0935e2d3d8e514331f02bafdcf67e6260d117efec95807005bbca55efb85d1e114160629c630d6bbee58f669d39051623ed362cae852f6e5b4a321",
        "lib\/Mapping\/GroupMapping.php": "3dc938348b31394d90c1b403714bae5fc750ef4fb63ce6c0bcbb6cab0e9d4a407505dcdff519518a08897692f9ad34d20abab44e7222ae85105648961eadb1d2",
        "lib\/Mapping\/UserMapping.php": "c99edbb116b45be07d8a8c5c61ee7029304f73d58cc5dd61a07ab1111043cf914aa8898265a205b48ffb24fb0be48b127c412f2d24cac91fbc912d77a56ff500",
        "lib\/Migration\/GroupMappingMigration.php": "c0134f044ef75757550272e9d9990a9d9258fc7eca81cc37585f91f1d059e454269d3d81cc64157469cad01954608e6e3c835f4ff42295cdd280142dea522c85",
        "lib\/Migration\/RemoveRefreshTime.php": "e24cb87ece2ce8970e0f8d7bb52fdff86150947018b948a9e156bebaa54778315d162c2246d3d339b3740e3e8578540d14a524de53c4027e3c193442ebef3ef8",
        "lib\/Migration\/SetDefaultProvider.php": "abccbbfdd66cbb0306da53b65d0035503310389d557e1a6488fee9d07a6e0acaf247c50db0e1f4858912a721a44c56ba720f0a5b3288c5d2c9df0c1255297770",
        "lib\/Migration\/UUIDFix.php": "f72a74ac35936b23901a91f837599e3bf68fba6c14cd5943a17ca293173dab7cbe9c39109ce5b2330321f4b8337d5950f60e2b659508924ca375a2fc33160fd9",
        "lib\/Migration\/UUIDFixGroup.php": "4276adb628546df65790879c924a7bb4b8b64c03a866187e925978bea66711507f40d4cbfb967e0af83b30178e7bcbf1c656f4d4ebe06ebb0705264ec8165d09",
        "lib\/Migration\/UUIDFixInsert.php": "ebe904f34ede5b43ac132930329705f5a3e6aea4ea1112983e18fd428fb19f3d45a1ab56ac74820053a8b012bf971d607099b7bcb3bc15485eed561783cc2260",
        "lib\/Migration\/UUIDFixUser.php": "0bab359f59b3735f697af28832ef8bee0783d470280c292ff646c17bb85b5fd76d7834a4a2a92b7394ee179a18894e4dbfc98978e955a69e846e33a71fd33b9b",
        "lib\/Migration\/UnsetDefaultProvider.php": "3ded7e2b2583de1072dbd98c38c6be1f3973bda5621ed8e81af7fd775d058a7e1ea993220b9f066df306a6d340a2df0fdb6148e5bcf92abca8a1e8cc5ea55ded",
        "lib\/Migration\/Version1010Date20200630192842.php": "3f1dcc25ba0c52976fc74be4ffe9430ce80380a4408262b2a70230f5d0c8a19436427106a49f02dfbc98a1ab1446a5ba48495d114d5ad30137c534a3fd7ebf15",
        "lib\/Migration\/Version1120Date20210917155206.php": "a359d705345fdde87b4357e5237c7365f03fbbfdb0fd55feef699121087a4ab0c7fe746bb0f43d490debbef3cd8bae0d90108474e91e3fa209ebf10d387d0487",
        "lib\/Migration\/Version1130Date20211102154716.php": "cc1b87260a3b88f128dfd0d3518518e10a631b8740c400067b401945242ef37639f9eedd1755c329a38c949f7b4d52597439f61ab4637e1533f82a03db9c1d83",
        "lib\/Migration\/Version1130Date20220110154717.php": "661fef74c01bad1877016ebd09932ceaf4bb4d03012b6066249ba3ae4afa8ba4a3f88727a55ddccd9cd1ad516ba10e43a6de2677f9653089335d613709560b44",
        "lib\/Migration\/Version1130Date20220110154718.php": "c248d5978df7ec94dc30f4c36120de7bb0e1012b0c4057d2cb232a456759a6f731f66d3d3ab94999358fd2a57691b6142de29ec7f4f44147d106cbb887ba9d79",
        "lib\/Migration\/Version1130Date20220110154719.php": "2e10d547abd51381e50245e6d0f3687b7b35d8b9a0d37e2e135e63728e4bed4427bf228df96672904661c42dcf2794cb7e476b2d4cc380b054d3303381a4a799",
        "lib\/Migration\/Version1141Date20220323143801.php": "9d31e497065162fafe9b55556dcdb54ebdaec59d2b54bc4ba8295ac913948df6c611494a652bf7b31b54429eef289a6a7b47e0d66cdcaab7b4f0ffcb83698b95",
        "lib\/Notification\/Notifier.php": "6beffa14036f89a31ba60fe54e95173d6c9bb693e8a34d0899580bf0c222a794ca3c8308f2abbdf5be1dce8f33b9ec44ca93b6c34cc16a0c6e876be0418fbe81",
        "lib\/PagedResults\/TLinkId.php": "1aabb926ce0f7390803ccb1f4672b1e02cd393a6a5e96deafffb61d48f71ecfdbaec5078a651941cda6a54958a69576faf2785cbe9564cb775b1c640eedcf6bd",
        "lib\/Proxy.php": "3165f93dddc25d361a41a08d2d4f5e500f6959541b086d1baf02d4f7d33a3869150f4bf557e8af8158d397098c0bdb2cabe0f7367119678094fb62394a087f08",
        "lib\/Settings\/Admin.php": "2c620ab267dc2bcca376a239b74a488a61ead557ceff33c3c9b87348491e6bb126c0804751a30c88d3c2950252eaeb0538afcc4e2676d1d59315a6cfb03d1f58",
        "lib\/Settings\/Section.php": "c836ed36fd2ed50c96cdf93cbd694479cfbfc74034be8c89481fdd1e8078ab9346398a5d897ae043ad1c29c9c0529d867ce57784ce0ecf5a440b6a05bbfd5bf7",
        "lib\/User\/DeletedUsersIndex.php": "896cde90238ae9903f0421c3f3727fcdd89e54a63b200bcd283a1306e6594c216d0ca70ba670aaa3d8a0e702e14cd523db30bc6085cf92071b6f3ac9551e86a9",
        "lib\/User\/Manager.php": "62574d9c12e70146d755b4ab66224689586f5198c4bb4323e36f7da087d865fdbc446634abb3455ac0b7ddc46e427efe6a7969d3a73054fc57506bf0d1c31bea",
        "lib\/User\/OfflineUser.php": "8f7fd59f8128b548a4b153ce6022d391eb7729846ef731983156e12291e4b40a60edfd6d56e8c56b9c3892ebdb863d7e7a1fdc4a92e474df28a13b32374a96a8",
        "lib\/User\/User.php": "c437897a50b3537abf5a7441ecfbd5e4356a051c8ecb99b1b0298ed2e9d13a211969e9edbecd319d399634471d7fe09337c34364df924635f95eea9dc9deb9c0",
        "lib\/UserPluginManager.php": "207c52d374f1e43a0101004f5e1f57ce20ae99c4d92f85edd98c96b7010aa5038b4056cbae3140ac9911ee062f0713dbfa58f3c5ea8b097bde35b8d3fcab5fcf",
        "lib\/User_LDAP.php": "d06d04cca6006bb3fc1d327752abc3659ed574835dd9419df44ae39c57ecd87d59a75deeea02dcbe5134c099dc4a96e87cc5ee7e97f84d99f01a33225aecdf19",
        "lib\/User_Proxy.php": "bc3b88bf39ea3f0bcc88229213394a6f4dd91120fd2c7a9bd674e55020e0d7fd541e2134721a0b174ddf7dc1d33479d7ebcdc4cd97a0331acfe13a8846957605",
        "lib\/Wizard.php": "9a8afe8833f8a198baa21995d721ca5a9e1878de925ad70e3817b6119eca20697c991e3e90c4dd6017c6d50b314a0678987ff8685bf38256cfb876ff350266c1",
        "lib\/WizardResult.php": "ebd3953a2edec6e47e288cd56e139805c707c7dd3f4c09e814d7dbd8f6e2752df2cc32a48cce17982a645456e26d86c88dcef99c7b05f3102cf6012dcbf72047",
        "templates\/part.settingcontrols.php": "e0746d16210d76b860196de8ac1cb7719634cd3ba855356ca6c7c820160d7fa5c2d09e5f18f9ed681bc7a6fd615c4167e0186051502cab36df0d4d392c9fed23",
        "templates\/part.wizard-groupfilter.php": "5b6f7daea7fbba573f2cd1db61822ea212df2ebda747a72f6647cd2d6d5811d21c815026c79d1b65835d9fbb800c741cbb2c9910735b1f2931aed62a0eb482d0",
        "templates\/part.wizard-loginfilter.php": "3b5261b559c3fe26ba64c1e1a8af4b268791b21d4176cffd6351f5a35025bac671006696c879b4e014c4a0d37617f99b12029dec1de5499625eaf277f09f8d7f",
        "templates\/part.wizard-server.php": "f763e84ba0419d9595ee5960ec926c3dedfb9cbe5cdc70e006f301d9e09b9256f68c7fec56d17338f55fe92980446f6c399407e118b1ef73983a7421fb4f7979",
        "templates\/part.wizard-userfilter.php": "a329c45ae5da7e3ea26d5610e9eb2a0b2c29252a64987d1f98da5b05343cbba380ce41354ccd2364f5ab8bdab4cbb689c56b8696ee6cb0d859e8801efce84ebb",
        "templates\/part.wizardcontrols.php": "b2335258c5d58cbd9a127c0bb733252553fb4708aad29c2712291a8d663af132f82e91bb3ffc66c42099e05a83876920c600a44bb93ae1eb236762b017cc35cb",
        "templates\/renewpassword.php": "82b2a49b902f2ce636ac8f57fe3379e7926c75396802a042d700b2a960dc0672af82b649902a93d6629fa4e7d72d7eeb575cbb63d545de8f7c6dbc91ec628faa",
        "templates\/settings.php": "db36ee12a3b23e624878bace8d2a0fc449bfae078e2c6fd047a9dd90bcd9abe83f1fab57d14da3162c3fabf73acce1d3236250b354be8304bb7840d7f0629b64"
    },
    "signature": "ZPdSasBJAV1WmGpUQ0fsgzAp8P5Qa8y5XU2BTi6WjQz7\/3LFrgqs7eK3D5uSmmkis70gtq1qreSDxigZBboA9SeMCIwFghGn6iKqHS0CJS4l\/Y\/FBeMTc0ZqJdvi3qxHNRxjNuZIt8pr7cBdFdLLK6P4sPme\/lyrOkZMx4PNjJT9taULAG3Z91QkhsBR3RTqQWaeLFrSH2ZU6Z8Y8xpITnJQxDAeRCo+gY9L05tGd7iQoIc8oUtOgmnyJ3pv9yNH33TzxIe+8q1whYdqSW8E\/8fk5OMWJwep5m2jfDaBSGpLqO10ggw6rblGfFXDRr5bi9Wu46Mx3fmtEXCHUmm9JQ==",
    "certificate": "-----BEGIN CERTIFICATE-----\r\nMIIEojCCA4qgAwIBAgICEAAwDQYJKoZIhvcNAQELBQAwezELMAkGA1UEBhMCREUx\r\nGzAZBgNVBAgMEkJhZGVuLVd1ZXJ0dGVtYmVyZzEXMBUGA1UECgwOTmV4dGNsb3Vk\r\nIEdtYkgxNjA0BgNVBAMMLU5leHRjbG91ZCBDb2RlIFNpZ25pbmcgSW50ZXJtZWRp\r\nYXRlIEF1dGhvcml0eTAeFw0xNjA2MTIyMTA1MDZaFw00MTA2MDYyMTA1MDZaMGYx\r\nCzAJBgNVBAYTAkRFMRswGQYDVQQIDBJCYWRlbi1XdWVydHRlbWJlcmcxEjAQBgNV\r\nBAcMCVN0dXR0Z2FydDEXMBUGA1UECgwOTmV4dGNsb3VkIEdtYkgxDTALBgNVBAMM\r\nBGNvcmUwggEiMA0GCSqGSIb3DQEBAQUAA4IBDwAwggEKAoIBAQDUxcrn2DC892IX\r\n8+dJjZVh9YeHF65n2ha886oeAizOuHBdWBfzqt+GoUYTOjqZF93HZMcwy0P+xyCf\r\nQqak5Ke9dybN06RXUuGP45k9UYBp03qzlUzCDalrkj+Jd30LqcSC1sjRTsfuhc+u\r\nvH1IBuBnf7SMUJUcoEffbmmpAPlEcLHxlUGlGnz0q1e8UFzjbEFj3JucMO4ys35F\r\nqZS4dhvCngQhRW3DaMlQLXEUL9k3kFV+BzlkPzVZEtSmk4HJujFCnZj1vMcjQBg\/\r\nBqq1HCmUB6tulnGcxUzt\/Z\/oSIgnuGyENeke077W3EyryINL7EIyD4Xp7sxLizTM\r\nFCFCjjH1AgMBAAGjggFDMIIBPzAJBgNVHRMEAjAAMBEGCWCGSAGG+EIBAQQEAwIG\r\nQDAzBglghkgBhvhCAQ0EJhYkT3BlblNTTCBHZW5lcmF0ZWQgU2VydmVyIENlcnRp\r\nZmljYXRlMB0GA1UdDgQWBBQwc1H9AL8pRlW2e5SLCfPPqtqc0DCBpQYDVR0jBIGd\r\nMIGagBRt6m6qqTcsPIktFz79Ru7DnnjtdKF+pHwwejELMAkGA1UEBhMCREUxGzAZ\r\nBgNVBAgMEkJhZGVuLVd1ZXJ0dGVtYmVyZzESMBAGA1UEBwwJU3R1dHRnYXJ0MRcw\r\nFQYDVQQKDA5OZXh0Y2xvdWQgR21iSDEhMB8GA1UEAwwYTmV4dGNsb3VkIFJvb3Qg\r\nQXV0aG9yaXR5ggIQADAOBgNVHQ8BAf8EBAMCBaAwEwYDVR0lBAwwCgYIKwYBBQUH\r\nAwEwDQYJKoZIhvcNAQELBQADggEBADZ6+HV\/+0NEH3nahTBFxO6nKyR\/VWigACH0\r\nnaV0ecTcoQwDjKDNNFr+4S1WlHdwITlnNabC7v9rZ\/6QvbkrOTuO9fOR6azp1EwW\r\n2pixWqj0Sb9\/dSIVRpSq+jpBE6JAiX44dSR7zoBxRB8DgVO2Afy0s80xEpr5JAzb\r\nNYuPS7M5UHdAv2dr16fDcDIvn+vk92KpNh1NTeZFjBbRVQ9DXrgkRGW34TK8uSLI\r\nYG6jnfJ6eJgTaO431ywWPXNg1mUMaT\/+QBOgB299QVCKQU+lcZWptQt+RdsJUm46\r\nNY\/nARy4Oi4uOe88SuWITj9KhrFmEvrUlgM8FvoXA1ldrR7KiEg=\r\n-----END CERTIFICATE-----"
}