{
    "hashes": {
        "appinfo\/info.xml": "f59d910cc26475154302af9cf2d72e13781c1f454d3153f170abc74aab7e93b18359b1c987f1d868d41e9fb4939cce2807d4587c5ecb815c9a2e1d668afa4f08",
        "composer\/autoload.php": "ef369872e61c4eb799fe0aa4659c5528c2a0b54ad464ad4180cf5049f75b28e3f116bf584c6742af454b0c3d6b8f177fae33145e27236edb878f3d64f7ad5574",
        "composer\/composer.json": "313256fbdefcdf996284d4275a3fa35caaa698fcef0ea4c31fbb31efa7095abfdf02106a5b97a03dc3605e826ba5b209cdd1c4027f4c70f4649f8faf9ffac07e",
        "composer\/composer.lock": "aba0413aa705be0d0570c496a43249c551836824e7a2b4673b51838fe0d9f425ddd07b6c4b95aa74ca549f58e90f2a7d78b51a2a3080749a5dc2e4a46d04fd1e",
        "composer\/composer\/ClassLoader.php": "a6884d84d11c4bcc2a53f86929ad8f519d5e1cda93724a3069df108b91a71345e59f2598cb0361ac0f88576fc03315a4158215b33e9609d8f07dbd3819754d61",
        "composer\/composer\/InstalledVersions.php": "733e68c171cb9e44868bb0f105850fbd0e4f225c67235bf30fb2ac5c3443c6edfb722d4b33aa91c82bb600e937cb6392eb1883694d41616e66969d7d42e23b4f",
        "composer\/composer\/LICENSE": "f3bb64009f41a425df5a9bbab53490f0eb9b74fa8d6aaa2f57efb928edc4ffff330260666edeaa04a91fed708c3663371cf01b284f3a08d6698aaef7a23f355a",
        "composer\/composer\/autoload_classmap.php": "a32c0027671461d45cee6b447645800a9ec86975e12194be744cfd952ec89b31c3b0d08465070c1d6a92877fbadfc2fc37f5d37f7242d595dfe1a0373d74a051",
        "composer\/composer\/autoload_namespaces.php": "5b2571f3b573a778d362b8c7412787b4084c7f27d3f5bba1585243f3ccbb0b9054e68522a22a1ad59ec11097b03a0e343865c0188c65b25f0a97e24e120339d1",
        "composer\/composer\/autoload_psr4.php": "d341b745a7103feca424c05419c9455bdd3fb14bbf57f06f44f0220672786705afbfe74bdcead64c5de7aa4832badc69a49693171948be6369aae4e082dc89d0",
        "composer\/composer\/autoload_real.php": "1850d00bccfc095a05448e9ae7664b8acdb27c14b24174585c1d9064da0cbf42432762973ed2b46976eadb72f178c497cee052956eca3d7d6fb5051e3a9430f8",
        "composer\/composer\/autoload_static.php": "eb757f5a67f87ca7ab528c5dd5c0eb83f1fc75f9c71fc466cae64cb87367b425bc575f1d68e41ef6ea1006fa0586e3f512b5a53a8f8c70828b8321a050bb6886",
        "composer\/composer\/installed.json": "0a3ed51f953eb945b970a8eb21957ca2beee4669c7d0d9be97b8259c391b60688f8abb78d4b1fae5e4e2ea5e3d8747f4d35f066a2605e9a76f5b45ec3f1da357",
        "composer\/composer\/installed.php": "e6858a3fc8f40144ee72d1ab87b5431a4f3246ac64d53bf639efeb6636392372bd10ba18a0b1cbaa483b8c05a1e35af769c457447ddb10af2cf00270767adb22",
        "l10n\/ar.js": "e78976c2b4db3f0d9b6e1d37a4e6a3bbdc2c2f14a91b4a2697db3b63b186a898f0aa596a5607c70e4db0d29036389b8f6a7145f9a7b438d61e52a5d91d61dcd0",
        "l10n\/ar.json": "41b6ac31df1003dc37c8964883f42d2f76c9683e5e68cc58aa14a89b966cf594e3ef784e94d85ebb2d5964d6eaa694f545443c837f11a92851922a883b75fbfe",
        "l10n\/ast.js": "ee616c3c450e1de3af2b934835a4bd8bd53244d1f9355f6894b7898818d53658c5ed2d642934321b07abced47e5f09f9b7d5a1846d37d3b3c60cd5cedb77b371",
        "l10n\/ast.json": "ada382050cf37d30c38f86dc59d5c52427a14e9c15c41f9ab0db2676e926ea91dd51315bf2472cba98c3dc71f9f8f1d564b973ce24aac3adfedc164808dce1ad",
        "l10n\/bg.js": "4e4c5857f6e39109a5e03dbc11cac701759dc050781f7e10641eafe7c9f25bce366e86a7db4eb3cef75ce0e57fb8dae58e632e6116f6002af034c3098650e964",
        "l10n\/bg.json": "54b5ed87f13126b93706728e89847957ef2b6358fb98eaf2f75f59bf1605a177ea71c3ffbfbe7c68b3cb44421ec27fb13a425727a969915c5af22aea78640694",
        "l10n\/ca.js": "e69f54039b134e5e8fa40885cb23182c42ef693cc24df4cf830b66e7516d80035527f515cc7794295a52bc556f8f3009de8766c3cf95d32c123e452e8de5073e",
        "l10n\/ca.json": "de3540ff3f4e31339268588244edefde525a0567c21d46d087637882055b627b9064a959a51afd472cd7a77634ab30ea43aa0878b3763b30ae5c92581ac0c2a9",
        "l10n\/cs.js": "34871ee396725cc8cffca89e19740a55d9c08a3512338dd9ae2f09a74808835c09c469619364660d82e3854ae9c213d167c5b3e246d2ea292647d10f9fc8bca4",
        "l10n\/cs.json": "d5fb31e7dad9930f047f402529b526f03fce074dc7b49ee802b3a503f212870bcda840e8cd3ac792feb2a551342bfe4557a4df002109956689d322a1b363994d",
        "l10n\/da.js": "33e06d75c1c36dbffdf3f65c2321de8146dfaa8845d3bdb9bdc860a0bef1ad511fd3eda84379946d7f9b56f776437bb5f400cd83b2b0081b033cd1d34c95276a",
        "l10n\/da.json": "5b5a339cac045462b3f4b24a389d22a82d82e6cb56c92b4d55abe7262c71ecb10beb0bcd38a73d5f60556b930e2bdedba2a59ed9de8274dc2f5ae03f6e6a0468",
        "l10n\/de.js": "0e0afe856e99947b36c9360e4466f9e217a447d6f04432da39264ecb98ab13cc2ba0352c36a7ee67ad5365adecf666f1a55a5f2ef99f303004ea8768fe47e450",
        "l10n\/de.json": "c50a7cad5415fdce28efc9d4393505dfe1fef92f75d6d539a261e99082caa3226992805ae612e5127e45943755cd76afd0a160c99132d555dadf9e4ea3eb45d9",
        "l10n\/de_DE.js": "0e0afe856e99947b36c9360e4466f9e217a447d6f04432da39264ecb98ab13cc2ba0352c36a7ee67ad5365adecf666f1a55a5f2ef99f303004ea8768fe47e450",
        "l10n\/de_DE.json": "c50a7cad5415fdce28efc9d4393505dfe1fef92f75d6d539a261e99082caa3226992805ae612e5127e45943755cd76afd0a160c99132d555dadf9e4ea3eb45d9",
        "l10n\/el.js": "336b99eb29c8c14cdc227d3c1a88d1bb9b180faec8f9b2fb00fabb961410d80973c19fb3b76f55a978f7f8e15e9e7ee1b745936a0ed6d91cddbbc26c70077e7c",
        "l10n\/el.json": "e6d95212ee3c6dbbb215958f27212ed3eaabf59bca90d82a6bb058836e0da9a7c3b9e6312ea19e93e9d5a65fbf828340de853583d1deaec1fb6bb2ec43269fb8",
        "l10n\/en_GB.js": "39bd32dd29fadf0fc5458acb8f60ad752f38fa493ec1125d011c4a5fd28d74e7c0f2a77f81c1e990fb3e3d08ea64416608716de837f43284d403841f7a721755",
        "l10n\/en_GB.json": "681fd2890bd3482c7b71956fd3276891e8045f1e3f38d4451d12ebf9e327dad2f11ef669277db44b2d090b4dad73a069672709cb6f94fe49e1a2523ccd5c6c57",
        "l10n\/eo.js": "eb89cab1d7733154df5c62ef68a08eebcbabce5cf7a89fca7e64c9a2d196e9df385787476430bfaf53cadbda011760e4bfac8e0e864e81d8373d9f43647ec7b9",
        "l10n\/eo.json": "b4e58809c7057313b3d2e8895ea9b1bc1423fb076c184722e2fe0c50c01bf2bdfc7529753da78edaf3cb361dddd8e02e3a59fb847c99d6c040517a4d5c301d93",
        "l10n\/es.js": "2d04acca9aaf3cdeacced14efb9edbdf108a8764418391d48b07706ab33c2478c42bc7e111fb07bcc5da826c17b08b5a55d0d498298bc5372664f7cd8a994c81",
        "l10n\/es.json": "5d1dc65f75cbee990026392633c39f679178d712c0f643c03e750e76d7be59ad5d08df1cfd5d567d1715461beb5f4565eb6e78abea32ccf6af083d30bd07643b",
        "l10n\/es_AR.js": "75ab26a09eeabc7c78e0d49f616a687119116157b3c20513f2d485c6b1ba5785abb350fcc1a8f6f54ebab0d02f26ce2bce6333ffc027406472a1af73ddc68dfe",
        "l10n\/es_AR.json": "f3e38c38e5a3b38ecee65e22a16c2bbfff9b60b507301b8dbbcbb89c3e5d17ec0d1f6772cfec23e6d43e91ea013fe45387585cea63bebfbbb55e8de9997412cc",
        "l10n\/es_CL.js": "80a1d6a51824f945b7fed48d65f9314898ddc9cd6bacddb11ccfd9239e6ea5d4b3f2a09d44d6ff5fc141d358bcb5049a4a387b8bc09272beecfbb06c58dd22d5",
        "l10n\/es_CL.json": "66bceb432381eb625d8d31249a385d039e7c8b9a89ce56880349c683f87d181c583a06ef7c9c0df34737e63843aa75dce42d45b0e0027188de9005486acf8c99",
        "l10n\/es_CO.js": "0234542c1a83258cfaa588f18a4bbe0037133ad7a9e7eecd56dab5a4c72c1fd58b999a9e3d1469f1128b114243b6b9cf11d5227fcee60a316b4599d164ca09aa",
        "l10n\/es_CO.json": "688bb235cbe3cc8dc1cd3004e6043a22db37974b7a46025605b91bda00c4142cfa9470866dd0139dd2b7870ecb968af7bc77c06c12c1a200e5228f23d80c1b7b",
        "l10n\/es_CR.js": "2e85281a68fd00a30d0f04804ef32d11b096a8ef48466c4328ac5e3ade7516000c89b69fc46e55cd89d9db0b2fa54599e3ce6e2a5c2062a1b6384364c500eff9",
        "l10n\/es_CR.json": "46a967aef36d977117f74dd2f676e4f937c4b8f3ad2ae380e7ef73be06a2251f50ab2e6167e2ea5781a9255650e6e3e431f862ef1827e977f4e35467a0538a20",
        "l10n\/es_DO.js": "0234542c1a83258cfaa588f18a4bbe0037133ad7a9e7eecd56dab5a4c72c1fd58b999a9e3d1469f1128b114243b6b9cf11d5227fcee60a316b4599d164ca09aa",
        "l10n\/es_DO.json": "688bb235cbe3cc8dc1cd3004e6043a22db37974b7a46025605b91bda00c4142cfa9470866dd0139dd2b7870ecb968af7bc77c06c12c1a200e5228f23d80c1b7b",
        "l10n\/es_EC.js": "80a1d6a51824f945b7fed48d65f9314898ddc9cd6bacddb11ccfd9239e6ea5d4b3f2a09d44d6ff5fc141d358bcb5049a4a387b8bc09272beecfbb06c58dd22d5",
        "l10n\/es_EC.json": "66bceb432381eb625d8d31249a385d039e7c8b9a89ce56880349c683f87d181c583a06ef7c9c0df34737e63843aa75dce42d45b0e0027188de9005486acf8c99",
        "l10n\/es_MX.js": "c8589f5b85fbffcd0934f8b968a96972a4c890c89c67d9adef9d3e1309ae1d01d605d89dbe5c14cdea57596489809d0aa8b7e664cf6f5a512d55b7ba40c5435c",
        "l10n\/es_MX.json": "bdac343b1902109ad58e27b2a186f1c60de99ebf6788ce24acae72c69d25324fe516966c5c2b6b5703d5fd113255b5b801c02f4bd6a1fa883e911dc78fcefd37",
        "l10n\/et_EE.js": "d4a3761d289549cfb7356b5157dda6a4d280b338b24d2bb626da0cf93a46652038f6f0fe861e1dc212cea2d134d57973bf2036a8c86ab0bd494fdccd2b568533",
        "l10n\/et_EE.json": "c8d9de530b00280d443c40d90ade1e8df282985803d65a7b4bbfc670a351235f2cfc1903048589f2dc320ef0fc4315a2ba0753498b2c407f2d494956fdf5520d",
        "l10n\/eu.js": "816d5d0a953db3a99667cef790032e4eea396409bc4998b29c9e938fb97a027533809f4cea2d902c2c42fb63ed8111a79060bb980670f1dbc6de564d91ff33eb",
        "l10n\/eu.json": "55e37c6cc90e3c45ae0ec1ea90f45ae9b4340e5ad834eaa8bcea8af9c9edeb3a4c3b5ac0472637019b41186c232a7fb50460be6b422b9604b75c48f2445f6bf5",
        "l10n\/fa.js": "9170745efec81b55dbc6934f0d2ab85d00b08eac8cb3634360f1c2e954dc1a5174bde64d89636d23298bc71c83b16d55d416995b7c49a5d55eedae979c87454e",
        "l10n\/fa.json": "90673ac2102505769a80379a05b3674fad86477a260175cbd36c6403eef12297232986756e8e636d233877ae4f53c61725a73a3824299548ad9318dd29c61369",
        "l10n\/fi.js": "dfff49c5cf7cca524de389c1087139899f3eb291d4d13c15e79582fc7a518d2d6cadecb0e5142fe2e1211588963f78e8665aefa69810ed5831107b4f14da2517",
        "l10n\/fi.json": "6d670c6c6df89bc99c32d08640eb888ce8db3d0f980b5885973f1e3d64151503ae6c27eba82f714ecbfa928a0e33fab25b5e6ffd9551bba057e4eebab6702513",
        "l10n\/fr.js": "98de309d7957abf09a206d2022ea21b7a839099c91fddee484509d5b8413d3ecac7dd665371e097de94b6b6168a8b0944a42f60447baad22eee5b1388c6218be",
        "l10n\/fr.json": "7ec7296de4f003a5ab71ab36ac24cbc8c543e02dbc9f3fc4e75d1c567f439653d1ad697dac3ddc1bc785d7917e284559f386c832d9b1749457e18386a6da551c",
        "l10n\/gl.js": "727db3f0fb0d0f0fe2652d1f3210f7de30ac13eb02c26c103d2cf09f7557468d364f1f54f452b5d68e1564b473bac68812860c3b6cc8014508e0c8c2f97aafcc",
        "l10n\/gl.json": "ac98f1de0fce515715bf6d2e09f33d4b05a156223ed3125e0807b88761130ee84838a6082e43ea26f4e316fef96066fbff4dfed6c1f14c40f540a13728bf2ff4",
        "l10n\/he.js": "7790c46f19bf8613b530e84da6a4de1c2aeb3ec18ee6b167607ad0994c704be2e39ce68df89e6755fc0728fd3e674623c837f6298f1722c89e8b694f3b819175",
        "l10n\/he.json": "db1957eb154a2d09785f13663d9e780fc2e5a00d3b2a8a24bca27c73d97beeab9ff43c720f7b1e88481d84e49f4a0069a26ec89da30b206917ab6dad42101406",
        "l10n\/hr.js": "579b196b803b32c212af912e83693bf82ca88ef3a28fbf392988ff6775784b892f6e5b8419e5f397470dbb571407d00f8c9f9f04da2fc016901890486f289877",
        "l10n\/hr.json": "7769883392c5e0305dc5d1f8c2fab7f31f4438a7fd967b9ea1a21e9d2040a99258291b0275e0494eabe50723775830da0656dd1272583f665628a0655531e956",
        "l10n\/hu.js": "9c90800e6148cfbf37444af1d91faaeb617b896d0bbc4fdcb9c3c85f46af1730659be66ef64b77c635dad98f3d0cab9db2383de2f56cb2b19d6f594ac102a7e1",
        "l10n\/hu.json": "262b88bfded4c1fd1d89bedf2397691b27aed70d965ddd435652058aebad9ab8e252fd21ccd4f41a78681d7b4ab564a8e77cb3f77c94a7c2e752b8d383c1361e",
        "l10n\/hy.js": "23afa55586e4754635dc95661566121e7e30f8ff249860bb77d661065b1c51cfa0434a303bdd788306c721c4078ca44b3987173bdcc5425ee5c160987980c219",
        "l10n\/hy.json": "e196dc1cf785d791332328f068d4eeda072e122ece1a02e0bfc53336bc158dd7c04f894d0e6a9fd24baacad682a3cc6c8af7ecb7511a6fc9af04842c76ef5c94",
        "l10n\/id.js": "21d0c3ae389efb8e6968397d21fea1fd738a4e83e9d69836f576ec1b06f15189fde33301a44073d725241c58046f2c026c7aa91242e0ec8ba07fd7ee03cafe4d",
        "l10n\/id.json": "40b42e0326a3c82fbd3178e78c4538c1ea6a81ed71bada42be3abf3862055ca86b3f657312c8e2383ce510072d5beec54278d7aa728ad71dd89f1e0713359bff",
        "l10n\/it.js": "0e18c9f9761acb94763c342b1692c6c687df5aa867f9009faecb90bd757ce8ef73a12c60e91386956b256876e4ae668c433d58db909d7b526597a57391237fea",
        "l10n\/it.json": "4afd67aead6f3fea8ab17aab218f69e143963398fe3024b5c747e15c114e1f36c572e57a0fadb2a00e06e2809818210348c763136fe0ae9f660d4c46a05d357b",
        "l10n\/ja.js": "33a01ac9d11cf3870c9cc640d54b6ec17d71140b649e9cf8fb923360a6acf8be0493ca1f68e2b7a9f9041a0f94a58831df955eb1401282b2a950bc8e1ee69eca",
        "l10n\/ja.json": "06861a67c66e0102c19265267d011e3cea928d0d5c2030886f49b616d50f2ab0208057c8c09bcc4c2c3567942678d72a3c0353137153e91c76ca0d4ea6bd8678",
        "l10n\/ko.js": "b17af078ab50f5db924276c48c2e96eee778c9f59f2dbff5e8d9f2075966a2009704ed4c2c392f1c4c8139f5a5d7fc6f608c9dccb15896ce81d639a4a864d276",
        "l10n\/ko.json": "ea07c1d008aeabcf94419b8f1906d2988a63b919f4cdbf2bf5146de91e91c8e7884e3660ef6cc962607166edca685e2419b9ea72d9bbc56251f728cbb5ddc1ab",
        "l10n\/lt_LT.js": "e1cc1f544f1f848813d0835dfead08ed7fb5f8350a6148fc04a29bba04d1e73f7ca3a1ba31c9a4df6b476773f189d39aa1202e46a781205e78ed51ceeb60de2e",
        "l10n\/lt_LT.json": "ecb753a0e106c82408878d48dfff949d4a5616c18354989034c14c04e24a1d6aafe526644689a909c0e606f884a561152aa65c5c138e757881d8376c582635a0",
        "l10n\/mk.js": "62a1d83097b7af541e0f3a42cbf1b9f7c79ff07ad29cf112ccb57c3da474b8e71a42f81f223f4063981591bfb9e59e0b012564dc581de4f36de8b7d6105f1f57",
        "l10n\/mk.json": "396e6644da7fade750d10b8337d3a437f5b8cd39e5ace351c6e2dad6e382fdd2e8c43b4ffd485ee2a6e0d8416de41edff704f382367eec9b69ceba585dc6437d",
        "l10n\/nb.js": "d1ed629b58df48dcdcd21ada7db0bbc95f3d37a92bd0d3283db3ceb0d0cf19f7b4ef3f6809e353f3db816f1bec2a143af2dc33388f69694d040160c500e99078",
        "l10n\/nb.json": "84bf9dbcf9930b418dbbc131be373f7e9ead21553a12ee03aa1c3467aaf40dab2b52aa14ae2448ceaf0194b5c17bdfa819b6d375b2452febb633c67c2ee87254",
        "l10n\/nl.js": "80b02070776e67a94154d2e4c37909a83c20bec406fbf9bc572905a52415229374d678471a47de805f97945af2ee25ca9e9902c75bac0de95dcd688af7ead683",
        "l10n\/nl.json": "fc46a2432c3d52241a4a4a359463b967fd3c6da9417606239b53461d3822bdc36713e0350fc229259736029ed06eb83215599af80978282f3f48ccc7dc099521",
        "l10n\/nn_NO.js": "84c7ae576c13cda7fc25bcfc731e938886ba47bd92c2b063b7b1c4b65bc11dfb59b6804b0239000046ae41ea9c1403f201f1842c9bda1f778a5410cd678dc3ea",
        "l10n\/nn_NO.json": "3f2939b811a98f1c8c6b61cb1805c20b164b7a5823cdcbfc2e10ffc2beb96f7cb56836e062d9a33fb01499bd14e9c2d6b0a0c025f7fd7ec24cff3b0ae4a75921",
        "l10n\/oc.js": "f0195759349dc7d386c6150164eb1d7a852339a4b639aae1380998623cc334fd1ee0aa50ddf3d7ee2887ad97fd5fe17e56760f84d3eb8f69374da8df25c43018",
        "l10n\/oc.json": "50dcd1c7c00069c7146e0d6d4b3a060065832b28e1b2ed75e3cfbb0689489a606db56008fb0dd7656624bd3e8ad086cb9d041768482f2bfe4a768291cbe70a2c",
        "l10n\/pl.js": "d8604ee4e67bdb258deff7a65d8aec2f2f0ee67643d85d4c62597848ebcbf67331d3b0befe5c3546ce4ee69cf6cd3584b47fceb47eaac9eaf5421bc934176d52",
        "l10n\/pl.json": "bee85d52e902af349b3757a0817e0aa394b68a84749b87e6deb3e91e76106e9eb138addc3a119a4ff535f88903a5be50d1b48b7965c12b3afe83ce2223ca0f64",
        "l10n\/pt_BR.js": "207d38e86567ad27c8028d55b60153740c0216db1f2243135630b65ce409cb21cf0378c0ceff3d12b4674975bbf93cab677fc1cefa77aa69b68a0139496563c4",
        "l10n\/pt_BR.json": "028a199ce3b5a7335bb63fb621476e063a0f098984d0e00b4a4683fa6fb98f4e0119d50de62f276ca7c6baf99642b843e948f88940835030456ff936ac57b56c",
        "l10n\/pt_PT.js": "ce9f1e336ac3165513d407c861545083ac7a1afceae9a6911e884eb64264ca6c591b07cc77b5c2f50f9f37afbd450a8e7a924a89dfb14794e70af02bdbbb9ec9",
        "l10n\/pt_PT.json": "47086ca3271d68b5ac5d8ade943f697630ba23bf5f17eb7de4b6e772c167ec8ff53654b8142b3cae1b29ee47b77eb0e41eaff3dd051ff4fc41d85bbb8908e51e",
        "l10n\/ro.js": "e688f4003946a03524462dce2f85991e81aec1cdf6130f8b1141bbd4ab2f86e4f344c4d3e4ae8b5bfcb2448b4a727936532ab153d99d7379ec61b85b3a2bb781",
        "l10n\/ro.json": "d896280fabfcc0f22eac1aaf060b8cf5fc892233dbe07094d3726c2ad98ab3fb67cf6539576db7ee3e8d087118977d18f4a1bb39954eea05d31c60dd2c2f9a76",
        "l10n\/ru.js": "41b50a53daf4bc2965720728a167ef0db13678edcba4245bba7604c27246cd0eb77c2b4191f8475fc053ec1a7621f4d6f98a15676c46c894d780f896942aabb0",
        "l10n\/ru.json": "bcafcad2b75adda612a0f250f9e7e8ced65007ab33476ba4127be045e13603856d9ac9d45a4c8aad105de9d5c910142b0a2879bc314069f195cf58115886cf24",
        "l10n\/sc.js": "88ec970ca6b26e4fc033e9966d3d4de3230de80a0f1026fc0a33e3d56ff8f98bef70af2d9e680f74d294099528378a2b7122f01bc2db0013dd550be62bc5dd0b",
        "l10n\/sc.json": "2b8f4512da62297a657030640556ea709916e643e7c7421bc5586445fc88354f3fa93abc2dcb5409842f7157497658e9fb26c2fda65aa74419b76796c55b2f49",
        "l10n\/sk.js": "360641eca42a97949ecf5a1ca9e44a53b1ca343d0b6a1d865f89adfafbd9c548edb2df1a23f19a83ac77c448293461debfbb66b9abebceca8cb6c8dc454e57b1",
        "l10n\/sk.json": "6731637f988ffc557147aaf2559332b7f4b2e1b6d743dc92a596f0f2cb8d4620834bb01b6196dfadeac3f18cf032fda1066e790596570acccf428930988501c7",
        "l10n\/sl.js": "d0ccc596ced58f84d957bb0cc22cff4eee019ab87ca45eb55ec62806945eb24cc83a46d4cba704b50e4893b3f1eabf39a848c3264bb6d146202cc18b6729361c",
        "l10n\/sl.json": "ff92f35e47dde623f4facac011584bd6daaa7ba3fbe04fe0984fa18e8185d558914284ac07db627c4432d76ffd662b8390586304516fdfa20d224638f0215426",
        "l10n\/sr.js": "232d39b8f36fd3dda2b0bfef13c67ca13d3fa0fb6339cbcdab0b2a332049f4b4e9700c9e6547469d5e6539c615ad57adedcc3266ca054392bf9bf6f88bba4714",
        "l10n\/sr.json": "bb5aefb1c9bb79a81520b9d8b96d23eeaf8344c03a43fd55005a81118397a64765f6ed9794529406168d17ee4aae67ebf7ae840678d05a6537ed46276012be85",
        "l10n\/sv.js": "c665bde16c9446037ccdd5410c069c7caba5d20099b47427387af0abb6554a9e2a98f9b4927eae96b5119a94864811358f243d7f114a65389a682bb30526feb9",
        "l10n\/sv.json": "eb07e730e2da51f55f621fb33fdc555f10163b56aafe1f536009aa2b3da46adb8bbbe528fdeb7ad03f8253302801813fe95a7f737b477da616d3f68c9d3f0e91",
        "l10n\/tr.js": "742fdfe3ca5baaacb30cd8763272239ddcea9330b0f88bc8326a290751b4e56d2717d80fcba4304581a68da7322ae9a02a0881e0dd9bd80697cf66742ec1206b",
        "l10n\/tr.json": "81304007b68793b1d25c38fe45964a9931eced876ce1d3a2be771114528e332ed144556e6353eae319f83d0c3b1295f3b84386832280eae49f953543346356f3",
        "l10n\/uk.js": "17f1560ad3de7369a014f18bc73acc87ce8ea19280d3885e1eb971a5df1547b0054542c5296628d9655aeace3d81c1d97ba18959ca6777f6add53773ab9b234a",
        "l10n\/uk.json": "748a2bc515d51a7f4f568456a9d2a7c619dcf5909f266b521396c1589ce0dd65ea8e687f5e2063c67d1fb9a9b884d7575c89f011700a142a00a6853b55aeb6ac",
        "l10n\/vi.js": "d2c2250ed748e7bf056c587eb27cdde047e55f7662fba0d1a29a18ed630554a521c436a43126bfb70770511e106e583a25ae54dabb72090d8cb609aae91fecdc",
        "l10n\/vi.json": "91af8ef386fbfc4ec0fd4c697d6ea341433d3d13973356603697cb6b27cba4c46ffb0d9fc8f8955c070a49f96caed9547a37a30ff03c4be054f48a0f169e5605",
        "l10n\/zh_CN.js": "990c7a80ecc8ba1b44c39272f7e1aac0c93326b5b4eef8bea138b7ad484aae80613c0808df7a4073226297f609f359bcd54f3b3e96f7074bc8023ca612177ea3",
        "l10n\/zh_CN.json": "7447171f2a3550eb726012fcf0fb3d1b013d5f5199e947d34b1785a2d74f9f44f58360cc5c42993c112225ee1d9fff55e64659f72bfde5a3abfa432a43e6728e",
        "l10n\/zh_HK.js": "ac8a18a94cb776cf16e4ac8023a3049ed2201856c74faf6c6057574c6723eb7784fed7e9cee609df17905d2afb990a16346c624b5fbe3dccc3db1b7f7b45bcf0",
        "l10n\/zh_HK.json": "bac0fea3b3f2a69d5d590cfb4435b19fe36bc8f2d36ef5fa38ba3f3d6c80257cc9b70b47b3f4fed2064ceb3d4cba5e302ebe026f2d7ec001df17dd8edaa5cc1e",
        "l10n\/zh_TW.js": "3d55cf0e89caf1a3fb9e85f6f81969bbf66070ede8d380029c400a9313cb712cf42a6f9bd40fe43f0207ca05ca6b1c77bbe41e2defe9f0eae43e32eb880dd469",
        "l10n\/zh_TW.json": "6b3844a84a5ee897fddb909b55ee95ad0ed16bc053d9df21140e0c09033fe4a8f0f6199c057dac8b8bfecd729e6a0d5f67c220b59d09477f4b02b097ca78ccd7",
        "lib\/Actions\/Action.php": "05948a354a0d29884da19af8e4e91a6fc1ea71a5c7c2d86a5f7d94263c090a1370489ce3ae81f4c4287c114eec47acbea8c127ab302852a891f1df092058a762",
        "lib\/Actions\/AppManagement.php": "8c9ce785c073ee6d0d1e2390d10c1a83d8eaa6b787f16e883e49e16a97c5e7f207621cfd856bb6427ac71dd6cb506b1fceed5fec42d64e951cda4728900bcfd8",
        "lib\/Actions\/Auth.php": "c76337f71a43d17af477c523678b5c0fe5cc213d736539d7a519917b70675593e7e1e5c46f7bf1e84f5bb52aeca2f6ec27b941db585955d2b23cbf28b0d0da9b",
        "lib\/Actions\/Console.php": "102aef398df58af0e8b5940836972df2d75fcb5b588f4740ef44cdb83a4da15a6f2d69f99464dd2d9ec8ae79a4b0d191d2dd4ae6fb5f6df3b33e736e739a4cc6",
        "lib\/Actions\/Files.php": "071d33cdedd8222bd389480a6e1d2cbb64dcfcfbcdf8535365228aa98971b1c860f81cc99b068cbaae5958b21a8627ddb9cdd51fb2975a3e313c163e20ded144",
        "lib\/Actions\/GroupManagement.php": "a5264e2c5f3e71ac7126b11e09eda2f9b14f19a0263b8cef89b4f36286ecb070be1e90fbf1bd1f0b8f380f6bb1be44ccc277aa70ef54f3d174dab3a5456e3e6f",
        "lib\/Actions\/Security.php": "48902487882f3e8de15f0b24b6f3d695640c7d384a45c87db5dc0e07230f900c4e520b4c538f924db1d7c47757941b2cd40536557bbb680c1f72df424f71848e",
        "lib\/Actions\/Sharing.php": "5b56ab2d2b187bae42b3584f8379bb7322faa9b5fa3f36ec32f11a87625aa21e6f12ca426648b41fd22b9bc0765867b24c8671e75e6465b50ac15924ef0af43f",
        "lib\/Actions\/Trashbin.php": "83627f67606154ef86daf0bc0a5c2f89f3a8b325e538cd0058d34eb8c1612c47ef5fcfa0c184a8a617188ebd4b8570621d0d3b0b84bb9930531d0118148b5e31",
        "lib\/Actions\/UserManagement.php": "c30e651eae341c2dcc227ee3413960554ded8ef4ba57565f1c799876dceb68026953e985fd6a70cdd1cc7fb2283b4901a21a3ef93259176cc53412d6bb24a496",
        "lib\/Actions\/Versions.php": "96df934cb0ccd35067ef8e8a77b06834b50010a6924fef21d81091cd7f2bbf1a0b93949835e07146459804e5c5358b1db86e69695b8136a42492c9e07e0842d4",
        "lib\/AppInfo\/Application.php": "d822a8b17e65db2145dc1999885c2d1555e13de9c66a0f0361d5f997f575c5dcd01c4c82cb50d051b70d22bcea35d8cc6e4eb090897c9fb905c5bba6076f842d",
        "lib\/AuditLogger.php": "556d7ac5684b32dcf08b692fea3e064cd11015d5151dcccf354cd904161bc510aa0a590288ab74f81529ce94ce71e86fb3e6911ff1a9e25ebd3daefd08dbe23a",
        "lib\/BackgroundJobs\/Rotate.php": "e6292c1b999ab9fb3cbaee2bcbe4c1583b592fb0b1703877f62cf9b5f2da05ac9c0ec3ae7f1ce919a544f01d035f598e05aa27ac68a7e13616eac756eb8ed6b4",
        "lib\/IAuditLogger.php": "11e079220c56d1d50781e597e91260e6496308e41b90f91fce3032ca69aaa9ff32d3dbb6544513a57f16c4c8f0d9ccc5a35a55a288a436eea229a6c2b6a50830",
        "lib\/Listener\/CriticalActionPerformedEventListener.php": "ae3dd3af5743e168e7121262d5ed980894eb9be5e55d2bf3a804519c89834097f6a6cc07b14ff0bd08e300ff5f6b1017e3515ea5f75164f31ddcb8babac6c1fe"
    },
    "signature": "YrKbHbEbAzjk3XLLBcWHF5W3NtQR1I1vvENACmxdM0gZZb1OzwWJrK\/tkJG0gU33RmvxjbL+NKriiYnAbTnQcHbcQ1JXKTGaWVuxHu8YQ7vsa62nWz2WlgySIlnvT8609blJoQe7HXbNjTmWi7p0+pOSaX7RlpgNazZkshOCFoAhcxd6E8kna\/L9E97gMM0CFbndiv0CtCEnjL\/Cgmp2BmN0pyyx3AJPhIddtGFB\/HllpFwsNt1IB3W6J14yMjsKRvgDZ0\/eRiMQy8RVGnh1N8vjddPfABg7xtH6S1LzkjODDmVoyV6iurBRK8YtYXqgbTfHl+nSje9OyCnJgRXXGQ==",
    "certificate": "-----BEGIN CERTIFICATE-----\r\nMIIEojCCA4qgAwIBAgICEAAwDQYJKoZIhvcNAQELBQAwezELMAkGA1UEBhMCREUx\r\nGzAZBgNVBAgMEkJhZGVuLVd1ZXJ0dGVtYmVyZzEXMBUGA1UECgwOTmV4dGNsb3Vk\r\nIEdtYkgxNjA0BgNVBAMMLU5leHRjbG91ZCBDb2RlIFNpZ25pbmcgSW50ZXJtZWRp\r\nYXRlIEF1dGhvcml0eTAeFw0xNjA2MTIyMTA1MDZaFw00MTA2MDYyMTA1MDZaMGYx\r\nCzAJBgNVBAYTAkRFMRswGQYDVQQIDBJCYWRlbi1XdWVydHRlbWJlcmcxEjAQBgNV\r\nBAcMCVN0dXR0Z2FydDEXMBUGA1UECgwOTmV4dGNsb3VkIEdtYkgxDTALBgNVBAMM\r\nBGNvcmUwggEiMA0GCSqGSIb3DQEBAQUAA4IBDwAwggEKAoIBAQDUxcrn2DC892IX\r\n8+dJjZVh9YeHF65n2ha886oeAizOuHBdWBfzqt+GoUYTOjqZF93HZMcwy0P+xyCf\r\nQqak5Ke9dybN06RXUuGP45k9UYBp03qzlUzCDalrkj+Jd30LqcSC1sjRTsfuhc+u\r\nvH1IBuBnf7SMUJUcoEffbmmpAPlEcLHxlUGlGnz0q1e8UFzjbEFj3JucMO4ys35F\r\nqZS4dhvCngQhRW3DaMlQLXEUL9k3kFV+BzlkPzVZEtSmk4HJujFCnZj1vMcjQBg\/\r\nBqq1HCmUB6tulnGcxUzt\/Z\/oSIgnuGyENeke077W3EyryINL7EIyD4Xp7sxLizTM\r\nFCFCjjH1AgMBAAGjggFDMIIBPzAJBgNVHRMEAjAAMBEGCWCGSAGG+EIBAQQEAwIG\r\nQDAzBglghkgBhvhCAQ0EJhYkT3BlblNTTCBHZW5lcmF0ZWQgU2VydmVyIENlcnRp\r\nZmljYXRlMB0GA1UdDgQWBBQwc1H9AL8pRlW2e5SLCfPPqtqc0DCBpQYDVR0jBIGd\r\nMIGagBRt6m6qqTcsPIktFz79Ru7DnnjtdKF+pHwwejELMAkGA1UEBhMCREUxGzAZ\r\nBgNVBAgMEkJhZGVuLVd1ZXJ0dGVtYmVyZzESMBAGA1UEBwwJU3R1dHRnYXJ0MRcw\r\nFQYDVQQKDA5OZXh0Y2xvdWQgR21iSDEhMB8GA1UEAwwYTmV4dGNsb3VkIFJvb3Qg\r\nQXV0aG9yaXR5ggIQADAOBgNVHQ8BAf8EBAMCBaAwEwYDVR0lBAwwCgYIKwYBBQUH\r\nAwEwDQYJKoZIhvcNAQELBQADggEBADZ6+HV\/+0NEH3nahTBFxO6nKyR\/VWigACH0\r\nnaV0ecTcoQwDjKDNNFr+4S1WlHdwITlnNabC7v9rZ\/6QvbkrOTuO9fOR6azp1EwW\r\n2pixWqj0Sb9\/dSIVRpSq+jpBE6JAiX44dSR7zoBxRB8DgVO2Afy0s80xEpr5JAzb\r\nNYuPS7M5UHdAv2dr16fDcDIvn+vk92KpNh1NTeZFjBbRVQ9DXrgkRGW34TK8uSLI\r\nYG6jnfJ6eJgTaO431ywWPXNg1mUMaT\/+QBOgB299QVCKQU+lcZWptQt+RdsJUm46\r\nNY\/nARy4Oi4uOe88SuWITj9KhrFmEvrUlgM8FvoXA1ldrR7KiEg=\r\n-----END CERTIFICATE-----"
}